<svg xmlns="http://www.w3.org/2000/svg" width="70" height="70" viewBox="0 0 70 70">
    <g fill="#A91D1D" fill-rule="evenodd">
        <path d="M50.342 36.944v-8.666c.036-6.606-4.16-10.992-7.763-12.733a17.173 17.173 0 0 0-3.183-1.172v-.555c0-2.658-2.04-4.818-4.55-4.818-2.512 0-4.552 2.16-4.552 4.818v.636c-.972.282-1.933.645-2.862 1.096-3.987 1.948-8.021 6.635-8.062 12.723v8.671c0 6.155-2.052 11.44-6.102 15.703a.998.998 0 0 0-.226.968.927.927 0 0 0 .716.664l8.64 1.577c1.608.296 3.087.536 4.497.733C28.485 59.887 31.605 62 35.01 62c3.409 0 6.529-2.118 8.115-5.41 1.405-.198 2.88-.438 4.48-.734l8.64-1.577a.927.927 0 0 0 .711-.664.983.983 0 0 0-.228-.968c-4.239-4.466-6.386-9.745-6.386-15.703zM32.117 13.818c0-1.595 1.222-2.888 2.728-2.888 1.507 0 2.729 1.293 2.729 2.888v.175a17.098 17.098 0 0 0-5.457.047v-.222zm2.893 46.254c-2.302 0-4.457-1.21-5.84-3.196 2.036.226 3.934.335 5.831.335 1.906 0 3.813-.109 5.853-.335-1.383 1.986-3.537 3.196-5.844 3.196zm12.288-6.114c-1.747.316-3.346.575-4.862.782h-.004a83.25 83.25 0 0 1-1.951.235h-.014c-.581.062-1.15.113-1.715.155-.102.005-.209.015-.316.02-.485.037-.968.06-1.444.08-.098.004-.195.014-.293.014-1.133.042-2.25.042-3.383 0-.102 0-.203-.01-.301-.015a53.337 53.337 0 0 1-1.77-.099 52.324 52.324 0 0 1-1.657-.15c-.023-.005-.044-.005-.063-.005-.63-.07-1.275-.146-1.933-.235h-.009c-1.52-.202-3.124-.466-4.88-.785l-6.973-1.271c3.627-4.39 5.463-9.674 5.463-15.74v-8.666c.03-5.238 3.537-9.284 6.999-10.977a15.914 15.914 0 0 1 3.182-1.139c.01 0 .023 0 .032-.005a15.64 15.64 0 0 1 6.897-.061c.014 0 .023-.005.035-.005 1.187.264 2.356.659 3.48 1.205 3.36 1.627 6.734 5.645 6.703 10.977v8.671c0 5.817 1.977 11.223 5.745 15.74l-6.968 1.274z"/>
        <path d="M40.478 20.33c-3.465-1.773-7.71-1.773-11.153 0-1.966 1.016-5.294 3.977-5.325 8.663 0 .553.398 1.002.891 1.007h.005c.494 0 .891-.444.895-.997.023-3.679 2.7-6.04 4.281-6.855 2.98-1.535 6.662-1.535 9.663 0 .45.229.979.009 1.183-.494.206-.503.01-1.095-.44-1.324zM12.71 28.277a1.004 1.004 0 0 0-1.385 0C9.179 30.335 8 33.079 8 35.997c0 2.925 1.179 5.664 3.325 7.727.191.184.44.276.694.276a.986.986 0 0 0 .69-.276.912.912 0 0 0 0-1.335c-1.772-1.704-2.744-3.974-2.744-6.392 0-2.416.972-4.686 2.744-6.386a.919.919 0 0 0 0-1.334z"/>
        <path d="M16.05 42a.946.946 0 0 0 .672-1.616 6.188 6.188 0 0 1 0-8.773.94.94 0 0 0 0-1.334.957.957 0 0 0-1.346 0c-3.168 3.153-3.168 8.288 0 11.446a.949.949 0 0 0 .674.277zM58.675 28.277c-.382-.37-1-.37-1.384 0a.911.911 0 0 0 0 1.334c1.772 1.705 2.744 3.97 2.744 6.386 0 2.418-.972 4.688-2.744 6.392a.912.912 0 0 0 0 1.335.986.986 0 0 0 .69.276.995.995 0 0 0 .694-.276C60.821 41.661 62 38.922 62 35.997c0-2.918-1.179-5.662-3.325-7.72z"/>
        <path d="M54.278 30.277a.94.94 0 0 0 0 1.334 6.188 6.188 0 0 1 0 8.773A.946.946 0 0 0 54.95 42a.969.969 0 0 0 .674-.277c3.168-3.158 3.168-8.293 0-11.446a.957.957 0 0 0-1.346 0z"/>
    </g>
</svg>
