<svg xmlns="http://www.w3.org/2000/svg" width="26" height="26" viewBox="0 0 26 26">
    <g fill="#FFAF32" fill-rule="evenodd">
        <path d="M12.781 13.764a4.55 4.55 0 0 1-4.543-4.547 4.55 4.55 0 0 1 4.543-4.543 4.547 4.547 0 0 1 4.543 4.543 4.55 4.55 0 0 1-4.543 4.547zm0-8.289a3.748 3.748 0 0 0-3.742 3.742 3.748 3.748 0 0 0 3.742 3.746 3.748 3.748 0 0 0 3.742-3.746 3.747 3.747 0 0 0-3.742-3.742z"/>
        <path d="M12.781 25.998a.393.393 0 0 1-.304-.14C12.09 25.397 3 14.483 3 9.217c0-5.39 4.387-9.781 9.781-9.781 5.395 0 9.781 4.391 9.781 9.781 0 5.27-9.085 16.18-9.472 16.641a.41.41 0 0 1-.309.14zm0-25.761c-4.953 0-8.98 4.027-8.98 8.98 0 4.457 7.371 13.774 8.98 15.754 1.61-1.98 8.981-11.297 8.981-15.754 0-4.953-4.028-8.98-8.981-8.98z"/>
    </g>
</svg>
