<svg xmlns="http://www.w3.org/2000/svg" width="1486" height="144" viewBox="0 0 1486 144">
    <g fill="#000" fill-rule="nonzero">
        <path d="M624.269 43.332a29.31 29.31 0 0 0-18.201-14.314 29.31 29.31 0 0 0-18.338-14.139.74.74 0 0 0-.77.264L567.581 39.99a.74.74 0 0 0 .42 1.176c8.932 2.083 14.7 6.517 17.535 13.62l-.003.08.047.082.097.093.127.075.13.004.07.003c7.54.993 13.258 5.466 17.486 13.618a.74.74 0 0 0 1.236.113l19.37-24.879a.74.74 0 0 0 .173-.644zm-54.819-3.275l18.366-23.624a27.85 27.85 0 0 1 16.871 13.147l-18.301 23.496c-2.994-6.529-8.686-10.88-16.936-13.02zm34.91 27.235a28.89 28.89 0 0 0-7.4-8.994 21.57 21.57 0 0 0-9.398-4.23l18.301-23.496a27.85 27.85 0 0 1 16.882 13.127l-18.384 23.593z"/>
        <path d="M598.086 31.22a18.65 18.65 0 0 0-9.79-7.616.74.74 0 1 0-.46 1.405 17.24 17.24 0 0 1 9.03 7.04.74.74 0 1 0 1.22-.828zM593.476 37.143a18.66 18.66 0 0 0-9.79-7.596.74.74 0 1 0-.46 1.405 17.25 17.25 0 0 1 9.03 7.04.74.74 0 1 0 1.22-.829v-.02zM609.871 52.475a18.65 18.65 0 0 0-9.79-7.616.74.74 0 1 0-.46 1.404 17.23 17.23 0 0 1 9.03 7.04.74.74 0 1 0 1.22-.828zM588.72 43.241a18.65 18.65 0 0 0-9.79-7.616.74.74 0 1 0-.459 1.405 17.22 17.22 0 0 1 9.03 7.039.74.74 0 1 0 1.22-.828zM605.734 57.754a18.66 18.66 0 0 0-9.79-7.617.74.74 0 1 0-.459 1.405 17.24 17.24 0 0 1 9.03 7.04.74.74 0 1 0 1.22-.828zM607.037 35.065a.74.74 0 0 0-.77.264l-3.98 5.104a.74.74 0 0 0 .43 1.176c3.784.792 6.97 3.245 9.74 7.614a.75.75 0 0 0 .173.186.74.74 0 0 0 1.005-.125l3.98-5.104a.74.74 0 0 0 .03-.83 17 17 0 0 0-10.608-8.285zm9.115 8.604l-3.037 3.896a20.69 20.69 0 0 0-4.28-4.672 14.14 14.14 0 0 0-4.688-2.445l2.976-3.829a15.24 15.24 0 0 1 9.029 7.07v-.02z"/>
        <g>
            <path d="M914.832 53.478a29.31 29.31 0 0 0-18.202-14.314 29.31 29.31 0 0 0-18.337-14.138.74.74 0 0 0-.77.263l-19.369 24.85a.74.74 0 0 0 .42 1.175c8.932 2.083 14.7 6.517 17.535 13.62l-.003.08.047.082.097.093.127.075.13.004.07.003c7.54.993 13.257 5.466 17.485 13.618a.74.74 0 0 0 1.237.113l19.37-24.879a.74.74 0 0 0 .163-.645zm-54.82-3.275l18.375-23.593a27.85 27.85 0 0 1 16.872 13.147l-18.3 23.476c-3.004-6.54-8.696-10.89-16.946-13.03zm34.912 27.235a28.89 28.89 0 0 0-7.401-8.994 21.57 21.57 0 0 0-9.398-4.23l18.301-23.496a27.85 27.85 0 0 1 16.882 13.127l-18.384 23.593z"/>
            <path d="M888.659 41.368a18.65 18.65 0 0 0-9.79-7.617.74.74 0 1 0-.46 1.405 17.24 17.24 0 0 1 9.03 7.04.74.74 0 1 0 1.22-.828zM884.04 47.29a18.66 18.66 0 0 0-9.792-7.596.74.74 0 1 0-.459 1.405 17.25 17.25 0 0 1 9.03 7.039.74.74 0 1 0 1.22-.828v-.02zM900.394 62.62a18.65 18.65 0 0 0-9.739-7.654.74.74 0 1 0-.459 1.404 17.23 17.23 0 0 1 9.03 7.04.74.74 0 1 0 1.168-.79zM879.293 53.388a18.65 18.65 0 0 0-9.79-7.616.74.74 0 1 0-.459 1.405 17.22 17.22 0 0 1 9.03 7.039.74.74 0 1 0 1.22-.828zM896.297 67.9a18.66 18.66 0 0 0-9.83-7.617.74.74 0 1 0-.46 1.404 17.24 17.24 0 0 1 9.03 7.04.74.74 0 1 0 1.22-.828l.04.001zM897.61 45.212a.74.74 0 0 0-.77.264l-3.98 5.104a.74.74 0 0 0 .429 1.176c3.785.792 6.97 3.245 9.74 7.614a.75.75 0 0 0 .174.186.74.74 0 0 0 1.005-.125l3.98-5.104a.74.74 0 0 0 .03-.83 17 17 0 0 0-10.608-8.285zm9.095 8.623l-3.038 3.896a20.69 20.69 0 0 0-4.28-4.672 14.14 14.14 0 0 0-4.687-2.445l2.975-3.828a15.24 15.24 0 0 1 9.03 7.049z"/>
        </g>
        <g>
            <path d="M1205.405 63.625a29.31 29.31 0 0 0-18.202-14.313 29.31 29.31 0 0 0-18.337-14.14.74.74 0 0 0-.77.264l-19.38 24.849a.74.74 0 0 0 .42 1.175c8.933 2.083 14.702 6.517 17.535 13.62l-.002.08.047.082.097.094.127.074.13.005.07.002c7.54.994 13.257 5.466 17.485 13.619a.74.74 0 0 0 1.237.113l19.37-24.88a.74.74 0 0 0 .173-.644zm-54.78-3.273L1169 36.759a27.85 27.85 0 0 1 16.872 13.146l-18.301 23.496c-3.043-6.56-8.735-10.911-16.945-13.05zm34.911 27.235a28.89 28.89 0 0 0-7.4-8.994 21.57 21.57 0 0 0-9.398-4.23l18.244-23.578a27.85 27.85 0 0 1 16.882 13.127l-18.328 23.675z"/>
            <path d="M1179.222 51.514a18.65 18.65 0 0 0-9.79-7.616.74.74 0 1 0-.46 1.405 17.24 17.24 0 0 1 9.03 7.04.74.74 0 1 0 1.22-.829zM1174.612 57.437a18.66 18.66 0 0 0-9.79-7.596.74.74 0 1 0-.46 1.405 17.25 17.25 0 0 1 9.03 7.039.74.74 0 1 0 1.22-.828v-.02zM1191.007 72.769a18.65 18.65 0 0 0-9.79-7.617.74.74 0 1 0-.46 1.405 17.23 17.23 0 0 1 9.03 7.04.74.74 0 1 0 1.22-.828zM1169.866 63.535a18.65 18.65 0 0 0-9.79-7.616.74.74 0 1 0-.46 1.405 17.22 17.22 0 0 1 9.03 7.04.74.74 0 1 0 1.22-.829zM1186.87 78.047a18.66 18.66 0 0 0-9.79-7.616.74.74 0 1 0-.46 1.405 17.24 17.24 0 0 1 9.03 7.04.74.74 0 1 0 1.22-.829zM1188.173 55.359a.74.74 0 0 0-.77.263l-3.98 5.105a.74.74 0 0 0 .429 1.175c3.784.793 6.97 3.245 9.74 7.615a.75.75 0 0 0 .174.186.74.74 0 0 0 1.005-.125l3.98-5.104a.74.74 0 0 0 .03-.83 17 17 0 0 0-10.608-8.285zm9.115 8.603l-3.038 3.897a20.69 20.69 0 0 0-4.28-4.672 14.14 14.14 0 0 0-4.687-2.446l2.976-3.828a15.24 15.24 0 0 1 9.028 7.07l.001-.02z"/>
        </g>
        <g>
            <path d="M333.696 33.185a29.31 29.31 0 0 0-18.201-14.314 29.31 29.31 0 0 0-18.338-14.139.74.74 0 0 0-.77.263l-19.369 24.85a.74.74 0 0 0 .41 1.175c8.932 2.083 14.701 6.517 17.535 13.62l-.003.08.047.082.097.093.127.074.13.005.07.002c7.54.994 13.258 5.466 17.486 13.619a.73.73 0 0 0 .586.4.74.74 0 0 0 .65-.277l19.37-24.879a.74.74 0 0 0 .173-.654zm-54.818-3.305l18.375-23.594a27.85 27.85 0 0 1 16.871 13.147L295.823 42.93c-3.004-6.529-8.736-10.882-16.946-13.02l.001-.03zm34.91 27.235a28.89 28.89 0 0 0-7.4-8.994 21.57 21.57 0 0 0-9.398-4.23l18.301-23.496a27.85 27.85 0 0 1 16.874 13.076L313.79 57.115z"/>
            <path d="M307.483 21.073a18.65 18.65 0 0 0-9.74-7.615.74.74 0 0 0-.927.468.74.74 0 0 0 .478.927 17.24 17.24 0 0 1 9.01 7.009.74.74 0 0 0 .994.195.74.74 0 0 0 .185-.984zM302.903 26.996a18.66 18.66 0 0 0-9.79-7.596.74.74 0 0 0-.927.468.74.74 0 0 0 .478.927 17.25 17.25 0 0 1 9.03 7.04.74.74 0 0 0 .993.194.74.74 0 0 0 .216-1.033zM319.298 42.328a18.65 18.65 0 0 0-9.79-7.617.74.74 0 0 0-.927.468.74.74 0 0 0 .478.928 17.23 17.23 0 0 1 9.03 7.04.74.74 0 0 0 .994.194.74.74 0 0 0 .215-1.013zM298.158 33.094a18.65 18.65 0 0 0-9.84-7.608.74.74 0 0 0-.928.468.74.74 0 0 0 .478.928 17.22 17.22 0 0 1 9.03 7.039.74.74 0 0 0 .994.195.74.74 0 0 0 .266-1.022zM315.162 47.607a18.66 18.66 0 0 0-9.79-7.617.74.74 0 0 0-.927.468.74.74 0 0 0 .477.928 17.24 17.24 0 0 1 9.03 7.039.74.74 0 0 0 .994.195.74.74 0 0 0 .216-1.013zM316.474 24.919a.74.74 0 0 0-.77.263l-3.98 5.104a.74.74 0 0 0-.115.707.74.74 0 0 0 .544.469c3.785.792 6.971 3.245 9.74 7.614a.75.75 0 0 0 .174.187.74.74 0 0 0 1.035-.124l3.98-5.105a.74.74 0 0 0 .03-.83 17 17 0 0 0-10.638-8.285zm9.115 8.603l-3.037 3.896a20.69 20.69 0 0 0-4.28-4.672 14.14 14.14 0 0 0-4.687-2.445l2.975-3.828a15.24 15.24 0 0 1 9.029 7.069v-.02z"/>
        </g>
        <g>
            <path d="M624.269 43.332a29.31 29.31 0 0 0-18.201-14.314 29.31 29.31 0 0 0-18.338-14.139.74.74 0 0 0-.77.264L567.581 39.99a.74.74 0 0 0 .42 1.176c8.932 2.083 14.7 6.517 17.535 13.62l-.003.08.047.082.097.093.127.075.13.004.07.003c7.54.993 13.258 5.466 17.486 13.618a.74.74 0 0 0 1.236.113l19.37-24.879a.74.74 0 0 0 .173-.644zm-54.819-3.275l18.366-23.624a27.85 27.85 0 0 1 16.871 13.147l-18.301 23.496c-2.994-6.529-8.686-10.88-16.936-13.02zm34.91 27.235a28.89 28.89 0 0 0-7.4-8.994 21.57 21.57 0 0 0-9.398-4.23l18.301-23.496a27.85 27.85 0 0 1 16.882 13.127l-18.384 23.593z"/>
            <path d="M598.086 31.22a18.65 18.65 0 0 0-9.79-7.616.74.74 0 1 0-.46 1.405 17.24 17.24 0 0 1 9.03 7.04.74.74 0 1 0 1.22-.828zM593.476 37.143a18.66 18.66 0 0 0-9.79-7.596.74.74 0 1 0-.46 1.405 17.25 17.25 0 0 1 9.03 7.04.74.74 0 1 0 1.22-.829v-.02zM609.871 52.475a18.65 18.65 0 0 0-9.79-7.616.74.74 0 1 0-.46 1.404 17.23 17.23 0 0 1 9.03 7.04.74.74 0 1 0 1.22-.828zM588.72 43.241a18.65 18.65 0 0 0-9.79-7.616.74.74 0 1 0-.459 1.405 17.22 17.22 0 0 1 9.03 7.039.74.74 0 1 0 1.22-.828zM605.734 57.754a18.66 18.66 0 0 0-9.79-7.617.74.74 0 1 0-.459 1.405 17.24 17.24 0 0 1 9.03 7.04.74.74 0 1 0 1.22-.828zM607.037 35.065a.74.74 0 0 0-.77.264l-3.98 5.104a.74.74 0 0 0 .43 1.176c3.784.792 6.97 3.245 9.74 7.614a.75.75 0 0 0 .173.186.74.74 0 0 0 1.005-.125l3.98-5.104a.74.74 0 0 0 .03-.83 17 17 0 0 0-10.608-8.285zm9.115 8.604l-3.037 3.896a20.69 20.69 0 0 0-4.28-4.672 14.14 14.14 0 0 0-4.688-2.445l2.976-3.829a15.24 15.24 0 0 1 9.029 7.07v-.02z"/>
        </g>
        <g>
            <path d="M914.832 53.478a29.31 29.31 0 0 0-18.202-14.314 29.31 29.31 0 0 0-18.337-14.138.74.74 0 0 0-.77.263l-19.369 24.85a.74.74 0 0 0 .42 1.175c8.932 2.083 14.7 6.517 17.535 13.62l-.003.08.047.082.097.093.127.075.13.004.07.003c7.54.993 13.257 5.466 17.485 13.618a.74.74 0 0 0 1.237.113l19.37-24.879a.74.74 0 0 0 .163-.645zm-54.82-3.275l18.375-23.593a27.85 27.85 0 0 1 16.872 13.147l-18.3 23.476c-3.004-6.54-8.696-10.89-16.946-13.03zm34.912 27.235a28.89 28.89 0 0 0-7.401-8.994 21.57 21.57 0 0 0-9.398-4.23l18.301-23.496a27.85 27.85 0 0 1 16.882 13.127l-18.384 23.593z"/>
            <path d="M888.659 41.368a18.65 18.65 0 0 0-9.79-7.617.74.74 0 1 0-.46 1.405 17.24 17.24 0 0 1 9.03 7.04.74.74 0 1 0 1.22-.828zM884.04 47.29a18.66 18.66 0 0 0-9.792-7.596.74.74 0 1 0-.459 1.405 17.25 17.25 0 0 1 9.03 7.039.74.74 0 1 0 1.22-.828v-.02zM900.394 62.62a18.65 18.65 0 0 0-9.739-7.654.74.74 0 1 0-.459 1.404 17.23 17.23 0 0 1 9.03 7.04.74.74 0 1 0 1.168-.79zM879.293 53.388a18.65 18.65 0 0 0-9.79-7.616.74.74 0 1 0-.459 1.405 17.22 17.22 0 0 1 9.03 7.039.74.74 0 1 0 1.22-.828zM896.297 67.9a18.66 18.66 0 0 0-9.83-7.617.74.74 0 1 0-.46 1.404 17.24 17.24 0 0 1 9.03 7.04.74.74 0 1 0 1.22-.828l.04.001zM897.61 45.212a.74.74 0 0 0-.77.264l-3.98 5.104a.74.74 0 0 0 .429 1.176c3.785.792 6.97 3.245 9.74 7.614a.75.75 0 0 0 .174.186.74.74 0 0 0 1.005-.125l3.98-5.104a.74.74 0 0 0 .03-.83 17 17 0 0 0-10.608-8.285zm9.095 8.623l-3.038 3.896a20.69 20.69 0 0 0-4.28-4.672 14.14 14.14 0 0 0-4.687-2.445l2.975-3.828a15.24 15.24 0 0 1 9.03 7.049z"/>
        </g>
        <g>
            <path d="M43.133 23.038A29.31 29.31 0 0 0 24.932 8.724 29.31 29.31 0 0 0 6.594-5.414a.74.74 0 0 0-.77.263l-19.379 24.849a.74.74 0 0 0 .41 1.175c8.932 2.083 14.701 6.517 17.535 13.62l-.003.08.047.082.097.093.128.074.13.005.07.002c7.54.994 13.257 5.466 17.485 13.619a.73.73 0 0 0 .586.4.74.74 0 0 0 .65-.277l19.37-24.879a.74.74 0 0 0 .183-.654zm-54.799-3.274L6.71-3.83A27.85 27.85 0 0 1 23.58 9.317L5.28 32.813c-3.034-6.56-8.725-10.911-16.946-13.05zm34.911 27.235a28.89 28.89 0 0 0-7.4-8.994 21.57 21.57 0 0 0-9.399-4.23L24.69 10.196a27.85 27.85 0 0 1 16.882 13.127L23.245 46.999z"/>
            <path d="M16.95 10.927A18.65 18.65 0 0 0 7.16 3.31a.74.74 0 0 0-.927.468.74.74 0 0 0 .478.927 17.24 17.24 0 0 1 9.02 7.009.74.74 0 0 0 .995.195.74.74 0 0 0 .224-.983zM12.34 16.85a18.66 18.66 0 0 0-9.79-7.597.74.74 0 0 0-.927.468.74.74 0 0 0 .478.927 17.25 17.25 0 0 1 9.03 7.04.74.74 0 0 0 .993.195.74.74 0 0 0 .216-1.033zM28.725 32.18a18.65 18.65 0 0 0-9.79-7.616.74.74 0 0 0-.927.468.74.74 0 0 0 .478.928 17.23 17.23 0 0 1 9.03 7.04.74.74 0 0 0 .994.194.74.74 0 0 0 .215-1.013zM7.585 22.947a18.65 18.65 0 0 0-9.79-7.616.74.74 0 0 0-.927.468.74.74 0 0 0 .478.927 17.22 17.22 0 0 1 9.03 7.04.74.74 0 0 0 .993.194.74.74 0 0 0 .216-1.013zM24.589 37.46a18.66 18.66 0 0 0-9.79-7.617.74.74 0 0 0-.927.468.74.74 0 0 0 .478.927 17.24 17.24 0 0 1 9.03 7.04.74.74 0 0 0 .993.195.74.74 0 0 0 .216-1.013zM25.901 14.772a.74.74 0 0 0-.77.263l-3.98 5.104a.74.74 0 0 0-.115.707.74.74 0 0 0 .544.469c3.785.792 6.971 3.245 9.74 7.614a.75.75 0 0 0 .174.187.74.74 0 0 0 1.035-.124l3.98-5.105a.74.74 0 0 0 .03-.83A17 17 0 0 0 25.9 14.773zm9.116 8.603l-3.038 3.896a20.69 20.69 0 0 0-4.28-4.672 14.14 14.14 0 0 0-4.687-2.445l2.975-3.828a15.24 15.24 0 0 1 9.029 7.069v-.02z"/>
            <g>
                <path d="M333.696 33.185a29.31 29.31 0 0 0-18.201-14.314 29.31 29.31 0 0 0-18.338-14.139.74.74 0 0 0-.77.263l-19.369 24.85a.74.74 0 0 0 .41 1.175c8.932 2.083 14.701 6.517 17.535 13.62l-.003.08.047.082.097.093.127.074.13.005.07.002c7.54.994 13.258 5.466 17.486 13.619a.73.73 0 0 0 .586.4.74.74 0 0 0 .65-.277l19.37-24.879a.74.74 0 0 0 .173-.654zm-54.818-3.305l18.375-23.594a27.85 27.85 0 0 1 16.871 13.147L295.823 42.93c-3.004-6.529-8.736-10.882-16.946-13.02l.001-.03zm34.91 27.235a28.89 28.89 0 0 0-7.4-8.994 21.57 21.57 0 0 0-9.398-4.23l18.301-23.496a27.85 27.85 0 0 1 16.874 13.076L313.79 57.115z"/>
                <path d="M307.483 21.073a18.65 18.65 0 0 0-9.74-7.615.74.74 0 0 0-.927.468.74.74 0 0 0 .478.927 17.24 17.24 0 0 1 9.01 7.009.74.74 0 0 0 .994.195.74.74 0 0 0 .185-.984zM302.903 26.996a18.66 18.66 0 0 0-9.79-7.596.74.74 0 0 0-.927.468.74.74 0 0 0 .478.927 17.25 17.25 0 0 1 9.03 7.04.74.74 0 0 0 .993.194.74.74 0 0 0 .216-1.033zM319.298 42.328a18.65 18.65 0 0 0-9.79-7.617.74.74 0 0 0-.927.468.74.74 0 0 0 .478.928 17.23 17.23 0 0 1 9.03 7.04.74.74 0 0 0 .994.194.74.74 0 0 0 .215-1.013zM298.158 33.094a18.65 18.65 0 0 0-9.84-7.608.74.74 0 0 0-.928.468.74.74 0 0 0 .478.928 17.22 17.22 0 0 1 9.03 7.039.74.74 0 0 0 .994.195.74.74 0 0 0 .266-1.022zM315.162 47.607a18.66 18.66 0 0 0-9.79-7.617.74.74 0 0 0-.927.468.74.74 0 0 0 .477.928 17.24 17.24 0 0 1 9.03 7.039.74.74 0 0 0 .994.195.74.74 0 0 0 .216-1.013zM316.474 24.919a.74.74 0 0 0-.77.263l-3.98 5.104a.74.74 0 0 0-.115.707.74.74 0 0 0 .544.469c3.785.792 6.971 3.245 9.74 7.614a.75.75 0 0 0 .174.187.74.74 0 0 0 1.035-.124l3.98-5.105a.74.74 0 0 0 .03-.83 17 17 0 0 0-10.638-8.285zm9.115 8.603l-3.037 3.896a20.69 20.69 0 0 0-4.28-4.672 14.14 14.14 0 0 0-4.687-2.445l2.975-3.828a15.24 15.24 0 0 1 9.029 7.069v-.02z"/>
            </g>
            <g>
                <path d="M624.269 43.332a29.31 29.31 0 0 0-18.201-14.314 29.31 29.31 0 0 0-18.338-14.139.74.74 0 0 0-.77.264L567.581 39.99a.74.74 0 0 0 .42 1.176c8.932 2.083 14.7 6.517 17.535 13.62l-.003.08.047.082.097.093.127.075.13.004.07.003c7.54.993 13.258 5.466 17.486 13.618a.74.74 0 0 0 1.236.113l19.37-24.879a.74.74 0 0 0 .173-.644zm-54.819-3.275l18.366-23.624a27.85 27.85 0 0 1 16.871 13.147l-18.301 23.496c-2.994-6.529-8.686-10.88-16.936-13.02zm34.91 27.235a28.89 28.89 0 0 0-7.4-8.994 21.57 21.57 0 0 0-9.398-4.23l18.301-23.496a27.85 27.85 0 0 1 16.882 13.127l-18.384 23.593z"/>
                <path d="M598.086 31.22a18.65 18.65 0 0 0-9.79-7.616.74.74 0 1 0-.46 1.405 17.24 17.24 0 0 1 9.03 7.04.74.74 0 1 0 1.22-.828zM593.476 37.143a18.66 18.66 0 0 0-9.79-7.596.74.74 0 1 0-.46 1.405 17.25 17.25 0 0 1 9.03 7.04.74.74 0 1 0 1.22-.829v-.02zM609.871 52.475a18.65 18.65 0 0 0-9.79-7.616.74.74 0 1 0-.46 1.404 17.23 17.23 0 0 1 9.03 7.04.74.74 0 1 0 1.22-.828zM588.72 43.241a18.65 18.65 0 0 0-9.79-7.616.74.74 0 1 0-.459 1.405 17.22 17.22 0 0 1 9.03 7.039.74.74 0 1 0 1.22-.828zM605.734 57.754a18.66 18.66 0 0 0-9.79-7.617.74.74 0 1 0-.459 1.405 17.24 17.24 0 0 1 9.03 7.04.74.74 0 1 0 1.22-.828zM607.037 35.065a.74.74 0 0 0-.77.264l-3.98 5.104a.74.74 0 0 0 .43 1.176c3.784.792 6.97 3.245 9.74 7.614a.75.75 0 0 0 .173.186.74.74 0 0 0 1.005-.125l3.98-5.104a.74.74 0 0 0 .03-.83 17 17 0 0 0-10.608-8.285zm9.115 8.604l-3.037 3.896a20.69 20.69 0 0 0-4.28-4.672 14.14 14.14 0 0 0-4.688-2.445l2.976-3.829a15.24 15.24 0 0 1 9.029 7.07v-.02z"/>
            </g>
        </g>
        <g>
            <path d="M886.4 130.713l-4.691-3.516-6.688-13.341a.76.76 0 0 0-.33-.322l-.12-.004a.77.77 0 0 0-.25-.009l-26.15-1.003a.79.79 0 0 0-.672.337l-14.878 21.444a.78.78 0 0 0 .578 1.22l12.151 1.035 5.444 10.877a.78.78 0 0 0 .635.432 23.9 23.9 0 0 0 13.044-2.176 23.48 23.48 0 0 0 9.463-9.085.78.78 0 0 0 .027-.76l-5.444-10.876 5.725-9.206 6.09 12.15.005 5.854a.78.78 0 0 0 1.136.7l4.838-2.423a.78.78 0 0 0 .116-1.327h-.03zm-14.059 5.433c-4.735 7.52-11.386 10.86-20.368 10.185l-4.827-9.624 12.82 1.098a.78.78 0 0 0 .733-.365l6.825-10.928 4.817 9.634zm-12.7.057l-24.94-2.132 13.839-20.08 24.372.942-13.27 21.27zm22.233-3.707l.002-3.212 2.565 1.921-2.567 1.291zM1176.972 140.86l-4.69-3.516-6.689-13.341a.76.76 0 0 0-.329-.322l-.12-.004a.77.77 0 0 0-.25-.009l-26.15-1.003a.79.79 0 0 0-.672.337l-14.888 21.443a.78.78 0 0 0 .578 1.221l12.151 1.035 5.444 10.876a.78.78 0 0 0 .635.433 23.9 23.9 0 0 0 13.014-2.177 23.48 23.48 0 0 0 9.463-9.086.78.78 0 0 0 .026-.76l-5.473-10.877 5.725-9.206 6.18 12.154.005 5.853a.78.78 0 0 0 1.136.7l4.838-2.422a.78.78 0 0 0 .116-1.327l-.05-.002zm-14.058 5.433c-4.735 7.52-11.386 10.86-20.368 10.185l-4.827-9.624 12.82 1.098a.78.78 0 0 0 .733-.365l6.815-10.928 4.827 9.634zm-12.7.057l-24.94-2.132 13.839-20.08 24.372.942-13.27 21.27zm22.233-3.707l.002-3.212 2.565 1.921-2.567 1.291zM1467.535 151.007l-4.69-3.516-6.689-13.341a.76.76 0 0 0-.329-.322l-.12-.004a.77.77 0 0 0-.25-.01l-26.15-1.002a.79.79 0 0 0-.673.336l-14.877 21.444a.78.78 0 0 0 .578 1.221l12.151 1.035 5.444 10.876a.78.78 0 0 0 .635.433 23.9 23.9 0 0 0 13.014-2.177 23.48 23.48 0 0 0 9.463-9.086.78.78 0 0 0 .026-.76l-5.443-10.876 5.724-9.205 6.09 12.15.006 5.853a.78.78 0 0 0 1.136.7l4.838-2.422a.78.78 0 0 0 .116-1.327zm-14.078 5.432c-4.736 7.52-11.386 10.86-20.368 10.185l-4.827-9.624 12.82 1.098a.78.78 0 0 0 .733-.365l6.795-10.92 4.847 9.626zm-12.7.057l-24.94-2.132 13.838-20.08 24.372.942-13.27 21.27zm22.233-3.707l.002-3.212 2.565 1.921-2.567 1.291zM595.826 120.566l-4.69-3.516-6.688-13.341a.76.76 0 0 0-.33-.322l-.12-.004a.77.77 0 0 0-.25-.009l-26.15-1.003a.79.79 0 0 0-.672.337l-14.898 21.443a.78.78 0 0 0 .578 1.22l12.151 1.035 5.444 10.877a.78.78 0 0 0 .635.432 23.9 23.9 0 0 0 13.014-2.177 23.48 23.48 0 0 0 9.463-9.085.78.78 0 0 0 .027-.76l-5.444-10.876 5.805-9.223 6.09 12.15.006 5.854a.78.78 0 0 0 1.136.7l4.838-2.423a.78.78 0 0 0 .116-1.327l-.06.018zM581.768 126c-4.735 7.52-11.386 10.86-20.368 10.185l-4.827-9.624 12.82 1.098a.78.78 0 0 0 .733-.365l6.825-10.928 4.817 9.634zm-12.7.057l-24.94-2.132 13.839-20.08 24.372.942-13.27 21.27zm22.233-3.707l.002-3.212 2.565 1.921-2.567 1.291z"/>
            <path d="M886.4 130.713l-4.691-3.516-6.688-13.341a.76.76 0 0 0-.33-.322l-.12-.004a.77.77 0 0 0-.25-.009l-26.15-1.003a.79.79 0 0 0-.672.337l-14.878 21.444a.78.78 0 0 0 .578 1.22l12.151 1.035 5.444 10.877a.78.78 0 0 0 .635.432 23.9 23.9 0 0 0 13.044-2.176 23.48 23.48 0 0 0 9.463-9.085.78.78 0 0 0 .027-.76l-5.444-10.876 5.725-9.206 6.09 12.15.005 5.854a.78.78 0 0 0 1.136.7l4.838-2.423a.78.78 0 0 0 .116-1.327h-.03zm-14.059 5.433c-4.735 7.52-11.386 10.86-20.368 10.185l-4.827-9.624 12.82 1.098a.78.78 0 0 0 .733-.365l6.825-10.928 4.817 9.634zm-12.7.057l-24.94-2.132 13.839-20.08 24.372.942-13.27 21.27zm22.233-3.707l.002-3.212 2.565 1.921-2.567 1.291zM1176.972 140.86l-4.69-3.516-6.689-13.341a.76.76 0 0 0-.329-.322l-.12-.004a.77.77 0 0 0-.25-.009l-26.15-1.003a.79.79 0 0 0-.672.337l-14.888 21.443a.78.78 0 0 0 .578 1.221l12.151 1.035 5.444 10.876a.78.78 0 0 0 .635.433 23.9 23.9 0 0 0 13.014-2.177 23.48 23.48 0 0 0 9.463-9.086.78.78 0 0 0 .026-.76l-5.473-10.877 5.725-9.206 6.18 12.154.005 5.853a.78.78 0 0 0 1.136.7l4.838-2.422a.78.78 0 0 0 .116-1.327l-.05-.002zm-14.058 5.433c-4.735 7.52-11.386 10.86-20.368 10.185l-4.827-9.624 12.82 1.098a.78.78 0 0 0 .733-.365l6.815-10.928 4.827 9.634zm-12.7.057l-24.94-2.132 13.839-20.08 24.372.942-13.27 21.27zm22.233-3.707l.002-3.212 2.565 1.921-2.567 1.291zM305.263 110.42l-4.69-3.516-6.688-13.342a.76.76 0 0 0-.33-.322l-.12-.004a.77.77 0 0 0-.249-.008l-26.15-1.004a.79.79 0 0 0-.673.337l-14.877 21.444a.79.79 0 0 0-.028.78.78.78 0 0 0 .645.442l12.152 1.035 5.443 10.876a.78.78 0 0 0 .636.433 23.9 23.9 0 0 0 13.013-2.177 23.48 23.48 0 0 0 9.463-9.086.78.78 0 0 0 .027-.76l-5.444-10.876 5.725-9.206 6.09 12.15.005 5.854a.78.78 0 0 0 1.137.69l4.837-2.422a.78.78 0 0 0 .433-.636.78.78 0 0 0-.357-.683zm-14.098 5.43c-4.735 7.52-11.386 10.86-20.368 10.186l-4.827-9.624 12.82 1.098a.78.78 0 0 0 .413-.076.79.79 0 0 0 .31-.29l6.795-10.919 4.857 9.626zm-12.7.058l-24.94-2.132 13.839-20.08 24.372.942-13.27 21.27zm22.233-3.707l.003-3.212 2.644 1.924-2.647 1.288zM595.826 120.566l-4.69-3.516-6.688-13.341a.76.76 0 0 0-.33-.322l-.12-.004a.77.77 0 0 0-.25-.009l-26.15-1.003a.79.79 0 0 0-.672.337l-14.898 21.443a.78.78 0 0 0 .578 1.22l12.151 1.035 5.444 10.877a.78.78 0 0 0 .635.432 23.9 23.9 0 0 0 13.014-2.177 23.48 23.48 0 0 0 9.463-9.085.78.78 0 0 0 .027-.76l-5.444-10.876 5.805-9.223 6.09 12.15.006 5.854a.78.78 0 0 0 1.136.7l4.838-2.423a.78.78 0 0 0 .116-1.327l-.06.018zM581.768 126c-4.735 7.52-11.386 10.86-20.368 10.185l-4.827-9.624 12.82 1.098a.78.78 0 0 0 .733-.365l6.825-10.928 4.817 9.634zm-12.7.057l-24.94-2.132 13.839-20.08 24.372.942-13.27 21.27zm22.233-3.707l.002-3.212 2.565 1.921-2.567 1.291z"/>
            <path d="M886.4 130.713l-4.691-3.516-6.688-13.341a.76.76 0 0 0-.33-.322l-.12-.004a.77.77 0 0 0-.25-.009l-26.15-1.003a.79.79 0 0 0-.672.337l-14.878 21.444a.78.78 0 0 0 .578 1.22l12.151 1.035 5.444 10.877a.78.78 0 0 0 .635.432 23.9 23.9 0 0 0 13.044-2.176 23.48 23.48 0 0 0 9.463-9.085.78.78 0 0 0 .027-.76l-5.444-10.876 5.725-9.206 6.09 12.15.005 5.854a.78.78 0 0 0 1.136.7l4.838-2.423a.78.78 0 0 0 .116-1.327h-.03zm-14.059 5.433c-4.735 7.52-11.386 10.86-20.368 10.185l-4.827-9.624 12.82 1.098a.78.78 0 0 0 .733-.365l6.825-10.928 4.817 9.634zm-12.7.057l-24.94-2.132 13.839-20.08 24.372.942-13.27 21.27zm22.233-3.707l.002-3.212 2.565 1.921-2.567 1.291z"/>
        </g>
        <g>
            <path d="M799.57 38.347a4.67 4.67 0 1 0 4.504 4.83 4.68 4.68 0 0 0-4.504-4.83zm-.272 7.785a3.12 3.12 0 1 1 .218-6.236 3.12 3.12 0 0 1-.218 6.236z"/>
            <path d="M815.706 43.903c5.065-4.646 7.487-9.254 5.891-12.262-.873-1.641-2.791-2.589-5.555-2.815a1.94 1.94 0 0 0-3.665.082l-.764.093a35.11 35.11 0 0 0-3.465.67c-1.487-6.716-4.273-11.156-7.671-11.275-3.398-.119-6.487 4.086-8.44 10.712a35.09 35.09 0 0 0-3.41-.91c-5.105-1.068-8.712-.374-10.153 1.937-.87 1.39-.823 3.214-.035 5.292a1.93 1.93 0 0 0 1.775 3.324 31.18 31.18 0 0 0 3.281 4.027c-5.065 4.646-7.487 9.255-5.891 12.262.939 1.774 3.116 2.75 6.254 2.86a22.1 22.1 0 0 0 3.74-.22 35.09 35.09 0 0 0 3.465-.669c1.487 6.716 4.274 11.156 7.671 11.275 1.77.061 3.45-1.05 4.93-3.05l.25.009a1.94 1.94 0 0 0 1.58-3.157 32 32 0 0 0 1.68-4.504c1.12.36 2.258.663 3.41.91a22.1 22.1 0 0 0 3.715.48c3.138.109 5.378-.714 6.438-2.418 1.802-2.888-.292-7.664-5.031-12.653zM811.82 30.51l.703-.085a1.94 1.94 0 0 0 3.425-.08c2.165.175 3.663.848 4.263 1.99 1.156 2.161-.895 6.152-5.598 10.44a53.53 53.53 0 0 0-5.393-4.59 53.57 53.57 0 0 0-.755-7.031 33.73 33.73 0 0 1 3.355-.644zm-8.412 19.959a61.254 61.254 0 0 1-4.132 2.007 63.37 63.37 0 0 1-7.795-4.865 67.525 67.525 0 0 1 0-4.593c.055-1.589.17-3.126.32-4.581a73.344 73.344 0 0 1 3.983-2.303 61.254 61.254 0 0 1 4.132-2.007 66.356 66.356 0 0 1 3.983 2.29 68.54 68.54 0 0 1 3.813 2.565 67.525 67.525 0 0 1 0 4.593 67.296 67.296 0 0 1-.32 4.582 52.229 52.229 0 0 1-3.985 2.352l.001-.04zm3.744-.33a50.71 50.71 0 0 1-1.029 5.388 50.94 50.94 0 0 1-5.067-2.178 74.02 74.02 0 0 0 3.056-1.535c1.02-.544 2.067-1.048 3.039-1.635v-.04zm-9.695 3.114a50.93 50.93 0 0 1-5.206 1.82 50.74 50.74 0 0 1-.65-5.447 72.077 72.077 0 0 0 2.884 1.912c.98.625 1.97 1.2 2.96 1.755l.012-.04zm-7.567-6.788a50.71 50.71 0 0 1-4.167-3.608 50.7 50.7 0 0 1 4.408-3.298c-.1 1.127-.17 2.275-.21 3.455-.042 1.179.008 2.321-.031 3.45zm2.148-9.931a50.72 50.72 0 0 1 1.028-5.388 51 51 0 0 1 5.067 2.178 74.02 74.02 0 0 0-3.055 1.535c-1.02.545-2.059 1.069-3.03 1.645l-.01.03zm9.694-3.114a51 51 0 0 1 5.207-1.82 50.71 50.71 0 0 1 .65 5.447 72.077 72.077 0 0 0-2.885-1.912c-.97-.614-1.96-1.19-2.961-1.735l-.01.02zm7.546 6.828a50.69 50.69 0 0 1 4.167 3.607 50.7 50.7 0 0 1-4.408 3.308c.1-1.127.17-2.275.21-3.454.042-1.18.063-2.36.052-3.48l-.02.019zM800.4 20.014c2.449.086 4.869 3.853 6.242 10.074a53.94 53.94 0 0 0-6.677 2.379 54 54 0 0 0-6.495-2.839c1.805-6.13 4.492-9.719 6.94-9.633l-.01.02zm-18.984 17.829c.154-.27.24-.572.251-.882a1.94 1.94 0 0 0-1.8-2.004c-.644-1.654-.686-3.026-.091-4.006.752-1.194 2.523-1.773 5.062-1.684a20.76 20.76 0 0 1 3.476.452 33.71 33.71 0 0 1 3.321.886 53.56 53.56 0 0 0-1.244 6.96 53.55 53.55 0 0 0-5.7 4.204 29.61 29.61 0 0 1-3.264-3.946l-.01.02zm5.945 18.318c-4.404.597-7.473-.06-8.402-1.824-1.155-2.162.895-6.152 5.598-10.44a53.54 53.54 0 0 0 5.393 4.59 53.55 53.55 0 0 0 .755 7.03 33.76 33.76 0 0 1-3.324.625l-.02.02zm16.758 5.218l-.09-.003a1.94 1.94 0 0 0-1.677 3.034c-1.165 1.54-2.404 2.357-3.583 2.316-2.449-.086-4.869-3.852-6.242-10.074a53.91 53.91 0 0 0 6.677-2.378 53.9 53.9 0 0 0 6.495 2.838 30.63 30.63 0 0 1-1.57 4.238l-.01.03zm15.276-5.63c-1.06 1.694-4.158 2.136-8.509 1.234a33.73 33.73 0 0 1-3.32-.887 53.59 53.59 0 0 0 1.243-6.96 53.54 53.54 0 0 0 5.7-4.204c4.442 4.598 6.2 8.712 4.907 10.788l-.021.03zM1090.133 48.493a4.67 4.67 0 1 0 4.504 4.83 4.68 4.68 0 0 0-4.504-4.83zm-.272 7.786a3.12 3.12 0 1 1 .218-6.237 3.12 3.12 0 0 1-.218 6.237z"/>
            <path d="M1106.279 54.05c5.065-4.646 7.487-9.254 5.891-12.262-.873-1.641-2.791-2.589-5.555-2.815a1.94 1.94 0 0 0-3.665.082l-.764.093a35.11 35.11 0 0 0-3.465.67c-1.487-6.716-4.274-11.156-7.671-11.275-3.398-.119-6.487 4.086-8.44 10.712a35.09 35.09 0 0 0-3.41-.91c-5.106-1.068-8.712-.374-10.154 1.937-.869 1.39-.822 3.214-.034 5.292a1.93 1.93 0 0 0 1.775 3.324 31.18 31.18 0 0 0 3.281 4.027c-5.065 4.646-7.487 9.255-5.891 12.262.938 1.774 3.116 2.75 6.254 2.86a22.1 22.1 0 0 0 3.74-.22 35.09 35.09 0 0 0 3.465-.669c1.487 6.716 4.273 11.156 7.671 11.275 1.77.062 3.45-1.05 4.93-3.05l.25.009a1.94 1.94 0 0 0 1.58-3.157 32 32 0 0 0 1.679-4.504c1.12.36 2.259.663 3.41.91a22.1 22.1 0 0 0 3.716.48c3.138.109 5.378-.713 6.438-2.418 1.792-2.889-.303-7.665-5.031-12.653zm-3.885-13.394l.703-.085a1.94 1.94 0 0 0 3.425-.08c2.165.175 3.663.848 4.263 1.99 1.155 2.161-.895 6.152-5.598 10.44a53.53 53.53 0 0 0-5.393-4.59 53.57 53.57 0 0 0-.755-7.031 33.73 33.73 0 0 1 3.355-.644zm-8.412 19.959a61.254 61.254 0 0 1-4.133 2.007 63.37 63.37 0 0 1-7.795-4.865 67.525 67.525 0 0 1 0-4.593c.056-1.589.17-3.126.32-4.581a73.344 73.344 0 0 1 3.984-2.303 61.254 61.254 0 0 1 4.132-2.007 66.356 66.356 0 0 1 3.983 2.29 68.54 68.54 0 0 1 3.813 2.565 67.525 67.525 0 0 1 0 4.593 67.296 67.296 0 0 1-.32 4.582 52.229 52.229 0 0 1-3.985 2.352l.001-.04zm3.744-.33a50.71 50.71 0 0 1-1.029 5.388 50.94 50.94 0 0 1-5.067-2.178 74.02 74.02 0 0 0 3.055-1.535c1.02-.544 2.068-1.048 3.03-1.635l.01-.04zm-9.695 3.114a50.93 50.93 0 0 1-5.206 1.82 50.74 50.74 0 0 1-.65-5.447 72.077 72.077 0 0 0 2.884 1.912c.97.624 1.97 1.2 2.96 1.755l.012-.04zm-7.546-6.827a50.71 50.71 0 0 1-4.167-3.608 50.7 50.7 0 0 1 4.408-3.308c-.099 1.127-.17 2.275-.21 3.454a66.84 66.84 0 0 0-.042 3.501l.01-.04zm2.148-9.932a50.72 50.72 0 0 1 1.028-5.387 51 51 0 0 1 5.068 2.178 74.02 74.02 0 0 0-3.056 1.535c-1.02.544-2.09 1.107-3.06 1.684l.02-.01zm9.694-3.113a51 51 0 0 1 5.207-1.82 50.71 50.71 0 0 1 .65 5.446 72.077 72.077 0 0 0-2.885-1.911c-.99-.575-1.99-1.15-2.982-1.695l.01-.02zm7.547 6.827a50.69 50.69 0 0 1 4.166 3.608 50.7 50.7 0 0 1-4.408 3.308c.1-1.127.17-2.275.21-3.455.042-1.179.062-2.319.021-3.441l.01-.02zm-8.88-20.232c2.449.086 4.869 3.852 6.243 10.074a53.94 53.94 0 0 0-6.677 2.379 54 54 0 0 0-6.495-2.839c1.783-6.091 4.47-9.68 6.919-9.594l.01-.02zm-18.984 17.849a1.94 1.94 0 0 0-1.55-2.886c-.643-1.654-.685-3.026-.09-4.006.752-1.194 2.523-1.773 5.061-1.684a20.76 20.76 0 0 1 3.477.451 33.71 33.71 0 0 1 3.32.887 53.56 53.56 0 0 0-1.243 6.96 53.55 53.55 0 0 0-5.7 4.204 29.61 29.61 0 0 1-3.275-3.926zm5.944 18.318c-4.403.597-7.472-.06-8.401-1.824-1.155-2.162.895-6.153 5.598-10.441a53.54 53.54 0 0 0 5.393 4.59 53.55 53.55 0 0 0 .755 7.031 33.76 33.76 0 0 1-3.355.644h.01zm16.758 5.218l-.09-.003a1.94 1.94 0 0 0-1.677 3.033c-1.164 1.54-2.403 2.358-3.583 2.317-2.448-.086-4.868-3.853-6.242-10.074a53.91 53.91 0 0 0 6.677-2.379 53.9 53.9 0 0 0 6.495 2.839 30.63 30.63 0 0 1-1.59 4.257l.01.01zm15.276-5.63c-1.06 1.694-4.157 2.136-8.508 1.234a33.73 33.73 0 0 1-3.321-.887 53.59 53.59 0 0 0 1.243-6.96 53.54 53.54 0 0 0 5.7-4.204c4.422 4.617 6.18 8.73 4.876 10.806l.01.01zM1380.706 58.64a4.67 4.67 0 1 0 4.504 4.83 4.68 4.68 0 0 0-4.504-4.83zm-.272 7.786a3.12 3.12 0 1 1 .217-6.237 3.12 3.12 0 0 1-.217 6.237z"/>
            <path d="M1396.841 64.197c5.066-4.646 7.488-9.254 5.892-12.262-.873-1.641-2.791-2.589-5.555-2.816a1.94 1.94 0 0 0-3.665.083l-.764.093a35.11 35.11 0 0 0-3.465.67c-1.487-6.717-4.274-11.157-7.672-11.275-3.398-.119-6.486 4.086-8.439 10.712a35.09 35.09 0 0 0-3.41-.91c-5.106-1.069-8.712-.374-10.154 1.937-.869 1.39-.822 3.213-.034 5.292a1.93 1.93 0 0 0 1.775 3.324 31.18 31.18 0 0 0 3.281 4.027c-5.065 4.646-7.487 9.254-5.891 12.262.938 1.774 3.116 2.75 6.254 2.86a22.1 22.1 0 0 0 3.74-.22 35.09 35.09 0 0 0 3.465-.67c1.487 6.717 4.273 11.157 7.671 11.275 1.77.062 3.449-1.05 4.93-3.05l.25.01a1.94 1.94 0 0 0 1.58-3.157 32 32 0 0 0 1.679-4.505c1.12.36 2.259.664 3.41.91a22.1 22.1 0 0 0 3.716.48c3.138.11 5.378-.713 6.438-2.417 1.802-2.889-.293-7.665-5.032-12.653zm-3.884-13.394l.703-.085a1.94 1.94 0 0 0 3.425-.08c2.165.175 3.662.847 4.263 1.99 1.155 2.16-.895 6.152-5.598 10.44a53.53 53.53 0 0 0-5.393-4.59 53.57 53.57 0 0 0-.755-7.032 33.73 33.73 0 0 1 3.355-.643zm-8.412 19.959a61.254 61.254 0 0 1-4.133 2.007 63.37 63.37 0 0 1-7.795-4.865 67.525 67.525 0 0 1 0-4.593c.056-1.59.17-3.126.32-4.582a73.344 73.344 0 0 1 3.984-2.302 61.254 61.254 0 0 1 4.132-2.007 66.356 66.356 0 0 1 3.983 2.29 68.54 68.54 0 0 1 3.812 2.565 67.525 67.525 0 0 1 0 4.593 67.296 67.296 0 0 1-.32 4.581 52.229 52.229 0 0 1-3.985 2.353l.002-.04zm3.744-.33a50.71 50.71 0 0 1-1.029 5.388 50.94 50.94 0 0 1-5.067-2.179 74.02 74.02 0 0 0 3.055-1.534c1.02-.545 2.068-1.048 3.04-1.635v-.04zm-9.695 3.114a50.93 50.93 0 0 1-5.207 1.82 50.74 50.74 0 0 1-.65-5.447 72.077 72.077 0 0 0 2.885 1.912c.979.624 1.97 1.2 2.97 1.755l.002-.04zm-7.546-6.828a50.71 50.71 0 0 1-4.167-3.607 50.7 50.7 0 0 1 4.408-3.309c-.1 1.128-.17 2.276-.21 3.455a79.905 79.905 0 0 0-.043 3.5l.012-.039zm2.148-9.93a50.72 50.72 0 0 1 1.028-5.388 51 51 0 0 1 5.067 2.178 74.02 74.02 0 0 0-3.055 1.534c-1.02.545-2.08 1.108-3.05 1.685l.01-.01zm9.694-3.114a51 51 0 0 1 5.207-1.82 50.71 50.71 0 0 1 .65 5.446 72.077 72.077 0 0 0-2.885-1.912c-.99-.575-1.98-1.15-2.982-1.695l.01-.02zm7.547 6.827a50.69 50.69 0 0 1 4.166 3.608 50.7 50.7 0 0 1-4.408 3.308c.1-1.127.17-2.276.21-3.455.042-1.18.052-2.32.03-3.44l.002-.02zm-8.88-20.232c2.449.085 4.869 3.852 6.242 10.074a53.94 53.94 0 0 0-6.677 2.378 54 54 0 0 0-6.494-2.838c1.783-6.092 4.47-9.68 6.929-9.594v-.02zm-18.984 17.828c.154-.27.24-.572.251-.882a1.94 1.94 0 0 0-1.8-2.004c-.643-1.653-.686-3.025-.091-4.005.752-1.195 2.523-1.773 5.062-1.685a20.76 20.76 0 0 1 3.476.452 33.71 33.71 0 0 1 3.321.886 53.56 53.56 0 0 0-1.243 6.961 53.55 53.55 0 0 0-5.7 4.204 29.61 29.61 0 0 1-3.286-3.907l.01-.02zm5.945 18.319c-4.404.596-7.473-.061-8.402-1.825-1.155-2.161.896-6.152 5.598-10.44a53.54 53.54 0 0 0 5.393 4.59 53.55 53.55 0 0 0 .755 7.031 33.76 33.76 0 0 1-3.345.664v-.02zm16.758 5.218l-.09-.003a1.94 1.94 0 0 0-1.677 3.033c-1.164 1.54-2.404 2.358-3.583 2.316-2.448-.085-4.868-3.852-6.242-10.074a53.91 53.91 0 0 0 6.677-2.378 53.9 53.9 0 0 0 6.495 2.838 30.63 30.63 0 0 1-1.58 4.278v-.01zm15.276-5.63c-1.06 1.694-4.157 2.136-8.509 1.233a33.73 33.73 0 0 1-3.32-.886 53.59 53.59 0 0 0 1.243-6.96 53.54 53.54 0 0 0 5.7-4.205c4.421 4.638 6.179 8.751 4.885 10.828v-.01zM508.997 28.2a4.67 4.67 0 1 0 4.504 4.83 4.68 4.68 0 0 0-4.504-4.83zm-.272 7.785a3.12 3.12 0 1 1 .218-6.236 3.12 3.12 0 0 1-.218 6.236z"/>
            <path d="M525.173 33.758c5.065-4.647 7.487-9.255 5.891-12.262-.873-1.642-2.791-2.59-5.555-2.816a1.94 1.94 0 0 0-3.665.082l-.764.094a35.11 35.11 0 0 0-3.465.67c-1.487-6.717-4.273-11.157-7.671-11.276-3.398-.118-6.487 4.087-8.44 10.712a35.09 35.09 0 0 0-3.41-.91c-5.105-1.068-8.712-.373-10.153 1.938-.87 1.39-.823 3.213-.035 5.292a1.93 1.93 0 0 0 1.775 3.324 31.18 31.18 0 0 0 3.281 4.027c-5.065 4.646-7.487 9.254-5.891 12.262.939 1.773 3.116 2.75 6.254 2.86a22.1 22.1 0 0 0 3.74-.22 35.09 35.09 0 0 0 3.465-.67c1.487 6.716 4.274 11.156 7.672 11.275 1.768.062 3.448-1.05 4.929-3.05l.25.009a1.94 1.94 0 0 0 1.581-3.157 32 32 0 0 0 1.678-4.504c1.121.36 2.26.664 3.41.91a22.1 22.1 0 0 0 3.716.48c3.138.11 5.378-.713 6.438-2.417 1.762-2.89-.332-7.666-5.031-12.653zm-3.915-13.395l.703-.086a1.94 1.94 0 0 0 3.425-.08c2.165.175 3.663.848 4.263 1.99 1.156 2.161-.895 6.152-5.597 10.44a53.53 53.53 0 0 0-5.393-4.59 53.57 53.57 0 0 0-.756-7.031 33.73 33.73 0 0 1 3.355-.643zm-8.412 19.958a61.254 61.254 0 0 1-4.132 2.007 63.37 63.37 0 0 1-7.795-4.865 67.525 67.525 0 0 1 0-4.592c.055-1.59.17-3.126.32-4.582a73.344 73.344 0 0 1 3.983-2.303 61.254 61.254 0 0 1 4.132-2.007 66.356 66.356 0 0 1 3.983 2.29 68.54 68.54 0 0 1 3.813 2.566 67.525 67.525 0 0 1 0 4.592 67.296 67.296 0 0 1-.32 4.582 47.265 47.265 0 0 1-3.985 2.352l.001-.04zm3.744-.33a50.71 50.71 0 0 1-1.029 5.388 50.94 50.94 0 0 1-5.067-2.178 74.02 74.02 0 0 0 3.056-1.534c1.02-.545 2.068-1.049 3.029-1.636l.011-.04zm-9.756 3.152a50.93 50.93 0 0 1-5.207 1.82 50.74 50.74 0 0 1-.65-5.446 72.077 72.077 0 0 0 2.885 1.911c1.01.586 1.99 1.16 2.972 1.715zm-7.546-6.827a50.71 50.71 0 0 1-4.097-3.605 50.7 50.7 0 0 1 4.408-3.309c-.1 1.128-.17 2.276-.21 3.455a65.45 65.45 0 0 0-.051 3.46l-.05-.001zm2.148-9.931a50.72 50.72 0 0 1 1.028-5.388 51 51 0 0 1 5.067 2.178 74.02 74.02 0 0 0-3.055 1.535c-1.02.544-2.039 1.07-3 1.646l-.04.029zm9.694-3.114a51 51 0 0 1 5.207-1.82 50.71 50.71 0 0 1 .65 5.447 72.077 72.077 0 0 0-2.885-1.912 45.044 45.044 0 0 0-2.921-1.733l-.05.018zm7.547 6.828a50.69 50.69 0 0 1 4.166 3.607 50.7 50.7 0 0 1-4.408 3.308c.1-1.127.17-2.275.21-3.454.042-1.18.103-2.358.082-3.48l-.05.019zm-8.88-20.233c2.449.086 4.869 3.853 6.242 10.074a53.94 53.94 0 0 0-6.677 2.379 54 54 0 0 0-6.495-2.839c1.836-6.13 4.532-9.717 6.98-9.632l-.05.018zm-18.933 17.81c.154-.269.24-.571.251-.881a1.94 1.94 0 0 0-1.801-2.004c-.643-1.654-.685-3.026-.09-4.006.752-1.194 2.523-1.773 5.062-1.684a20.76 20.76 0 0 1 3.476.451 33.71 33.71 0 0 1 3.321.887 53.56 53.56 0 0 0-1.244 6.96 53.55 53.55 0 0 0-5.7 4.204 29.61 29.61 0 0 1-3.275-3.927zm5.944 18.32c-4.403.596-7.472-.062-8.401-1.825-1.155-2.162.895-6.153 5.598-10.441a53.54 53.54 0 0 0 5.393 4.59 53.55 53.55 0 0 0 .755 7.031 33.76 33.76 0 0 1-3.345.644zm16.749 5.207l-.09-.003a1.94 1.94 0 0 0-1.677 3.033c-1.164 1.54-2.404 2.357-3.583 2.316-2.448-.085-4.868-3.852-6.242-10.074a53.91 53.91 0 0 0 6.677-2.378 53.9 53.9 0 0 0 6.495 2.838 30.63 30.63 0 0 1-1.58 4.268zm15.276-5.63c-1.06 1.693-4.157 2.136-8.509 1.233a33.73 33.73 0 0 1-3.32-.886 53.59 53.59 0 0 0 1.243-6.961 53.54 53.54 0 0 0 5.7-4.204c4.441 4.628 6.199 8.742 4.896 10.818h-.01z"/>
            <g>
                <path d="M799.57 38.347a4.67 4.67 0 1 0 4.504 4.83 4.68 4.68 0 0 0-4.504-4.83zm-.272 7.785a3.12 3.12 0 1 1 .218-6.236 3.12 3.12 0 0 1-.218 6.236z"/>
                <path d="M815.706 43.903c5.065-4.646 7.487-9.254 5.891-12.262-.873-1.641-2.791-2.589-5.555-2.815a1.94 1.94 0 0 0-3.665.082l-.764.093a35.11 35.11 0 0 0-3.465.67c-1.487-6.716-4.273-11.156-7.671-11.275-3.398-.119-6.487 4.086-8.44 10.712a35.09 35.09 0 0 0-3.41-.91c-5.105-1.068-8.712-.374-10.153 1.937-.87 1.39-.823 3.214-.035 5.292a1.93 1.93 0 0 0 1.775 3.324 31.18 31.18 0 0 0 3.281 4.027c-5.065 4.646-7.487 9.255-5.891 12.262.939 1.774 3.116 2.75 6.254 2.86a22.1 22.1 0 0 0 3.74-.22 35.09 35.09 0 0 0 3.465-.669c1.487 6.716 4.274 11.156 7.671 11.275 1.77.061 3.45-1.05 4.93-3.05l.25.009a1.94 1.94 0 0 0 1.58-3.157 32 32 0 0 0 1.68-4.504c1.12.36 2.258.663 3.41.91a22.1 22.1 0 0 0 3.715.48c3.138.109 5.378-.714 6.438-2.418 1.802-2.888-.292-7.664-5.031-12.653zM811.82 30.51l.703-.085a1.94 1.94 0 0 0 3.425-.08c2.165.175 3.663.848 4.263 1.99 1.156 2.161-.895 6.152-5.598 10.44a53.53 53.53 0 0 0-5.393-4.59 53.57 53.57 0 0 0-.755-7.031 33.73 33.73 0 0 1 3.355-.644zm-8.412 19.959a61.254 61.254 0 0 1-4.132 2.007 63.37 63.37 0 0 1-7.795-4.865 67.525 67.525 0 0 1 0-4.593c.055-1.589.17-3.126.32-4.581a73.344 73.344 0 0 1 3.983-2.303 61.254 61.254 0 0 1 4.132-2.007 66.356 66.356 0 0 1 3.983 2.29 68.54 68.54 0 0 1 3.813 2.565 67.525 67.525 0 0 1 0 4.593 67.296 67.296 0 0 1-.32 4.582 52.229 52.229 0 0 1-3.985 2.352l.001-.04zm3.744-.33a50.71 50.71 0 0 1-1.029 5.388 50.94 50.94 0 0 1-5.067-2.178 74.02 74.02 0 0 0 3.056-1.535c1.02-.544 2.067-1.048 3.039-1.635v-.04zm-9.695 3.114a50.93 50.93 0 0 1-5.206 1.82 50.74 50.74 0 0 1-.65-5.447 72.077 72.077 0 0 0 2.884 1.912c.98.625 1.97 1.2 2.96 1.755l.012-.04zm-7.567-6.788a50.71 50.71 0 0 1-4.167-3.608 50.7 50.7 0 0 1 4.408-3.298c-.1 1.127-.17 2.275-.21 3.455-.042 1.179.008 2.321-.031 3.45zm2.148-9.931a50.72 50.72 0 0 1 1.028-5.388 51 51 0 0 1 5.067 2.178 74.02 74.02 0 0 0-3.055 1.535c-1.02.545-2.059 1.069-3.03 1.645l-.01.03zm9.694-3.114a51 51 0 0 1 5.207-1.82 50.71 50.71 0 0 1 .65 5.447 72.077 72.077 0 0 0-2.885-1.912c-.97-.614-1.96-1.19-2.961-1.735l-.01.02zm7.546 6.828a50.69 50.69 0 0 1 4.167 3.607 50.7 50.7 0 0 1-4.408 3.308c.1-1.127.17-2.275.21-3.454.042-1.18.063-2.36.052-3.48l-.02.019zM800.4 20.014c2.449.086 4.869 3.853 6.242 10.074a53.94 53.94 0 0 0-6.677 2.379 54 54 0 0 0-6.495-2.839c1.805-6.13 4.492-9.719 6.94-9.633l-.01.02zm-18.984 17.829c.154-.27.24-.572.251-.882a1.94 1.94 0 0 0-1.8-2.004c-.644-1.654-.686-3.026-.091-4.006.752-1.194 2.523-1.773 5.062-1.684a20.76 20.76 0 0 1 3.476.452 33.71 33.71 0 0 1 3.321.886 53.56 53.56 0 0 0-1.244 6.96 53.55 53.55 0 0 0-5.7 4.204 29.61 29.61 0 0 1-3.264-3.946l-.01.02zm5.945 18.318c-4.404.597-7.473-.06-8.402-1.824-1.155-2.162.895-6.152 5.598-10.44a53.54 53.54 0 0 0 5.393 4.59 53.55 53.55 0 0 0 .755 7.03 33.76 33.76 0 0 1-3.324.625l-.02.02zm16.758 5.218l-.09-.003a1.94 1.94 0 0 0-1.677 3.034c-1.165 1.54-2.404 2.357-3.583 2.316-2.449-.086-4.869-3.852-6.242-10.074a53.91 53.91 0 0 0 6.677-2.378 53.9 53.9 0 0 0 6.495 2.838 30.63 30.63 0 0 1-1.57 4.238l-.01.03zm15.276-5.63c-1.06 1.694-4.158 2.136-8.509 1.234a33.73 33.73 0 0 1-3.32-.887 53.59 53.59 0 0 0 1.243-6.96 53.54 53.54 0 0 0 5.7-4.204c4.442 4.598 6.2 8.712 4.907 10.788l-.021.03z"/>
            </g>
            <g>
                <path d="M1090.133 48.493a4.67 4.67 0 1 0 4.504 4.83 4.68 4.68 0 0 0-4.504-4.83zm-.272 7.786a3.12 3.12 0 1 1 .218-6.237 3.12 3.12 0 0 1-.218 6.237z"/>
                <path d="M1106.279 54.05c5.065-4.646 7.487-9.254 5.891-12.262-.873-1.641-2.791-2.589-5.555-2.815a1.94 1.94 0 0 0-3.665.082l-.764.093a35.11 35.11 0 0 0-3.465.67c-1.487-6.716-4.274-11.156-7.671-11.275-3.398-.119-6.487 4.086-8.44 10.712a35.09 35.09 0 0 0-3.41-.91c-5.106-1.068-8.712-.374-10.154 1.937-.869 1.39-.822 3.214-.034 5.292a1.93 1.93 0 0 0 1.775 3.324 31.18 31.18 0 0 0 3.281 4.027c-5.065 4.646-7.487 9.255-5.891 12.262.938 1.774 3.116 2.75 6.254 2.86a22.1 22.1 0 0 0 3.74-.22 35.09 35.09 0 0 0 3.465-.669c1.487 6.716 4.273 11.156 7.671 11.275 1.77.062 3.45-1.05 4.93-3.05l.25.009a1.94 1.94 0 0 0 1.58-3.157 32 32 0 0 0 1.679-4.504c1.12.36 2.259.663 3.41.91a22.1 22.1 0 0 0 3.716.48c3.138.109 5.378-.713 6.438-2.418 1.792-2.889-.303-7.665-5.031-12.653zm-3.885-13.394l.703-.085a1.94 1.94 0 0 0 3.425-.08c2.165.175 3.663.848 4.263 1.99 1.155 2.161-.895 6.152-5.598 10.44a53.53 53.53 0 0 0-5.393-4.59 53.57 53.57 0 0 0-.755-7.031 33.73 33.73 0 0 1 3.355-.644zm-8.412 19.959a61.254 61.254 0 0 1-4.133 2.007 63.37 63.37 0 0 1-7.795-4.865 67.525 67.525 0 0 1 0-4.593c.056-1.589.17-3.126.32-4.581a73.344 73.344 0 0 1 3.984-2.303 61.254 61.254 0 0 1 4.132-2.007 66.356 66.356 0 0 1 3.983 2.29 68.54 68.54 0 0 1 3.813 2.565 67.525 67.525 0 0 1 0 4.593 67.296 67.296 0 0 1-.32 4.582 52.229 52.229 0 0 1-3.985 2.352l.001-.04zm3.744-.33a50.71 50.71 0 0 1-1.029 5.388 50.94 50.94 0 0 1-5.067-2.178 74.02 74.02 0 0 0 3.055-1.535c1.02-.544 2.068-1.048 3.03-1.635l.01-.04zm-9.695 3.114a50.93 50.93 0 0 1-5.206 1.82 50.74 50.74 0 0 1-.65-5.447 72.077 72.077 0 0 0 2.884 1.912c.97.624 1.97 1.2 2.96 1.755l.012-.04zm-7.546-6.827a50.71 50.71 0 0 1-4.167-3.608 50.7 50.7 0 0 1 4.408-3.308c-.099 1.127-.17 2.275-.21 3.454a66.84 66.84 0 0 0-.042 3.501l.01-.04zm2.148-9.932a50.72 50.72 0 0 1 1.028-5.387 51 51 0 0 1 5.068 2.178 74.02 74.02 0 0 0-3.056 1.535c-1.02.544-2.09 1.107-3.06 1.684l.02-.01zm9.694-3.113a51 51 0 0 1 5.207-1.82 50.71 50.71 0 0 1 .65 5.446 72.077 72.077 0 0 0-2.885-1.911c-.99-.575-1.99-1.15-2.982-1.695l.01-.02zm7.547 6.827a50.69 50.69 0 0 1 4.166 3.608 50.7 50.7 0 0 1-4.408 3.308c.1-1.127.17-2.275.21-3.455.042-1.179.062-2.319.021-3.441l.01-.02zm-8.88-20.232c2.449.086 4.869 3.852 6.243 10.074a53.94 53.94 0 0 0-6.677 2.379 54 54 0 0 0-6.495-2.839c1.783-6.091 4.47-9.68 6.919-9.594l.01-.02zm-18.984 17.849a1.94 1.94 0 0 0-1.55-2.886c-.643-1.654-.685-3.026-.09-4.006.752-1.194 2.523-1.773 5.061-1.684a20.76 20.76 0 0 1 3.477.451 33.71 33.71 0 0 1 3.32.887 53.56 53.56 0 0 0-1.243 6.96 53.55 53.55 0 0 0-5.7 4.204 29.61 29.61 0 0 1-3.275-3.926zm5.944 18.318c-4.403.597-7.472-.06-8.401-1.824-1.155-2.162.895-6.153 5.598-10.441a53.54 53.54 0 0 0 5.393 4.59 53.55 53.55 0 0 0 .755 7.031 33.76 33.76 0 0 1-3.355.644h.01zm16.758 5.218l-.09-.003a1.94 1.94 0 0 0-1.677 3.033c-1.164 1.54-2.403 2.358-3.583 2.317-2.448-.086-4.868-3.853-6.242-10.074a53.91 53.91 0 0 0 6.677-2.379 53.9 53.9 0 0 0 6.495 2.839 30.63 30.63 0 0 1-1.59 4.257l.01.01zm15.276-5.63c-1.06 1.694-4.157 2.136-8.508 1.234a33.73 33.73 0 0 1-3.321-.887 53.59 53.59 0 0 0 1.243-6.96 53.54 53.54 0 0 0 5.7-4.204c4.422 4.617 6.18 8.73 4.876 10.806l.01.01z"/>
            </g>
            <g>
                <path d="M218.434 18.053a4.68 4.68 0 0 0-4.83 4.504 4.68 4.68 0 0 0 4.504 4.83 4.68 4.68 0 0 0 4.83-4.504 4.68 4.68 0 0 0-4.504-4.83zm-.272 7.785a3.12 3.12 0 1 1 .218-6.236 3.12 3.12 0 0 1-.218 6.236z"/>
                <path d="M234.57 23.61c5.065-4.647 7.487-9.255 5.891-12.262-.873-1.642-2.79-2.59-5.555-2.816a2 2 0 0 0-1.757-1.262 1.94 1.94 0 0 0-1.908 1.344l-.763.094a35.11 35.11 0 0 0-3.466.669c-1.486-6.716-4.273-11.156-7.671-11.275-3.398-.118-6.487 4.087-8.44 10.712a35.09 35.09 0 0 0-3.41-.91c-5.105-1.068-8.712-.373-10.153 1.938-.87 1.39-.823 3.213-.035 5.292a1.94 1.94 0 0 0-.638 1.378 2 2 0 0 0 1.88 2.017 1.92 1.92 0 0 0 .543-.071 31.18 31.18 0 0 0 3.282 4.027c-5.066 4.646-7.488 9.254-5.892 12.262.939 1.774 3.116 2.75 6.254 2.86a22.1 22.1 0 0 0 3.74-.22 35.09 35.09 0 0 0 3.465-.67c1.487 6.717 4.274 11.157 7.672 11.275 1.769.062 3.448-1.05 4.93-3.05l.249.01a2 2 0 0 0 2.017-1.882 1.93 1.93 0 0 0-.436-1.285 32 32 0 0 0 1.679-4.505c1.12.36 2.259.664 3.41.91a22.1 22.1 0 0 0 3.715.48c3.139.11 5.379-.713 6.439-2.417 1.781-2.88-.303-7.655-5.042-12.644zm-3.885-13.394l.703-.086a1.94 1.94 0 0 0 3.435-.08c2.166.176 3.663.848 4.263 1.99 1.156 2.162-.895 6.153-5.597 10.441a53.53 53.53 0 0 0-5.393-4.591 53.57 53.57 0 0 0-.755-7.03 33.73 33.73 0 0 1 3.344-.644zm-8.412 19.958a61.254 61.254 0 0 1-4.132 2.007 63.37 63.37 0 0 1-7.795-4.865 67.525 67.525 0 0 1 0-4.593c.056-1.589.17-3.126.32-4.581a73.344 73.344 0 0 1 3.983-2.303 61.254 61.254 0 0 1 4.133-2.007 66.356 66.356 0 0 1 3.982 2.29 68.54 68.54 0 0 1 3.813 2.565 67.525 67.525 0 0 1 0 4.593 67.296 67.296 0 0 1-.32 4.582 52.229 52.229 0 0 1-3.985 2.352l.001-.04zm3.744-.33a50.71 50.71 0 0 1-1.029 5.388 50.94 50.94 0 0 1-5.067-2.178 74.02 74.02 0 0 0 3.056-1.534c1.02-.545 2.068-1.049 3.039-1.635l.001-.04zm-9.694 3.114a50.93 50.93 0 0 1-5.207 1.82 50.74 50.74 0 0 1-.65-5.446 72.077 72.077 0 0 0 2.885 1.912c.978.624 1.969 1.199 2.96 1.754l.012-.04zm-7.547-6.827a50.71 50.71 0 0 1-4.166-3.608 50.7 50.7 0 0 1 4.408-3.308c-.1 1.127-.17 2.275-.21 3.455a66.84 66.84 0 0 0-.043 3.5l.011-.04zm2.148-9.931a50.72 50.72 0 0 1 1.029-5.388 51 51 0 0 1 5.067 2.178 74.02 74.02 0 0 0-3.056 1.535c-1.02.545-2.08 1.108-3.05 1.684l.01-.01zm9.695-3.114a51 51 0 0 1 5.206-1.82 50.71 50.71 0 0 1 .65 5.447 72.077 72.077 0 0 0-2.884-1.912c-.99-.575-1.981-1.15-2.983-1.695l.01-.02zm7.546 6.828a50.69 50.69 0 0 1 4.167 3.607 50.7 50.7 0 0 1-4.408 3.308c.099-1.127.169-2.275.21-3.454.041-1.18.041-2.32.02-3.442l.011-.02zM219.285-.32c2.45.086 4.87 3.853 6.243 10.074a53.94 53.94 0 0 0-6.677 2.379 54 54 0 0 0-6.495-2.839c1.784-6.091 4.47-9.68 6.919-9.594l.01-.02zM200.303 17.51a1.94 1.94 0 0 0-1.55-2.886c-.643-1.654-.685-3.026-.09-4.006.752-1.194 2.523-1.773 5.061-1.684a20.76 20.76 0 0 1 3.477.452 33.71 33.71 0 0 1 3.32.886 53.56 53.56 0 0 0-1.243 6.96 53.55 53.55 0 0 0-5.7 4.204 29.61 29.61 0 0 1-3.286-3.907l.011-.02zm5.944 18.318c-4.403.597-7.472-.06-8.401-1.824-1.155-2.162.895-6.152 5.598-10.44a53.54 53.54 0 0 0 5.393 4.59 53.55 53.55 0 0 0 .755 7.03 33.76 33.76 0 0 1-3.355.664l.01-.02zm16.758 5.218l-.09-.003a2 2 0 0 0-2.016 1.881c-.013.41.106.814.34 1.153-1.165 1.54-2.404 2.357-3.583 2.316-2.449-.086-4.869-3.852-6.243-10.074a53.91 53.91 0 0 0 6.677-2.378 53.9 53.9 0 0 0 6.495 2.838 30.63 30.63 0 0 1-1.59 4.277l.01-.01zm15.276-5.63c-1.06 1.694-4.157 2.136-8.508 1.234a33.73 33.73 0 0 1-3.321-.887 53.59 53.59 0 0 0 1.244-6.96 53.54 53.54 0 0 0 5.7-4.204c4.42 4.637 6.178 8.751 4.885 10.827v-.01zM508.997 28.2a4.67 4.67 0 1 0 4.504 4.83 4.68 4.68 0 0 0-4.504-4.83zm-.272 7.785a3.12 3.12 0 1 1 .218-6.236 3.12 3.12 0 0 1-.218 6.236z"/>
                <path d="M525.173 33.758c5.065-4.647 7.487-9.255 5.891-12.262-.873-1.642-2.791-2.59-5.555-2.816a1.94 1.94 0 0 0-3.665.082l-.764.094a35.11 35.11 0 0 0-3.465.67c-1.487-6.717-4.273-11.157-7.671-11.276-3.398-.118-6.487 4.087-8.44 10.712a35.09 35.09 0 0 0-3.41-.91c-5.105-1.068-8.712-.373-10.153 1.938-.87 1.39-.823 3.213-.035 5.292a1.93 1.93 0 0 0 1.775 3.324 31.18 31.18 0 0 0 3.281 4.027c-5.065 4.646-7.487 9.254-5.891 12.262.939 1.773 3.116 2.75 6.254 2.86a22.1 22.1 0 0 0 3.74-.22 35.09 35.09 0 0 0 3.465-.67c1.487 6.716 4.274 11.156 7.672 11.275 1.768.062 3.448-1.05 4.929-3.05l.25.009a1.94 1.94 0 0 0 1.581-3.157 32 32 0 0 0 1.678-4.504c1.121.36 2.26.664 3.41.91a22.1 22.1 0 0 0 3.716.48c3.138.11 5.378-.713 6.438-2.417 1.762-2.89-.332-7.666-5.031-12.653zm-3.915-13.395l.703-.086a1.94 1.94 0 0 0 3.425-.08c2.165.175 3.663.848 4.263 1.99 1.156 2.161-.895 6.152-5.597 10.44a53.53 53.53 0 0 0-5.393-4.59 53.57 53.57 0 0 0-.756-7.031 33.73 33.73 0 0 1 3.355-.643zm-8.412 19.958a61.254 61.254 0 0 1-4.132 2.007 63.37 63.37 0 0 1-7.795-4.865 67.525 67.525 0 0 1 0-4.592c.055-1.59.17-3.126.32-4.582a73.344 73.344 0 0 1 3.983-2.303 61.254 61.254 0 0 1 4.132-2.007 66.356 66.356 0 0 1 3.983 2.29 68.54 68.54 0 0 1 3.813 2.566 67.525 67.525 0 0 1 0 4.592 67.296 67.296 0 0 1-.32 4.582 47.265 47.265 0 0 1-3.985 2.352l.001-.04zm3.744-.33a50.71 50.71 0 0 1-1.029 5.388 50.94 50.94 0 0 1-5.067-2.178 74.02 74.02 0 0 0 3.056-1.534c1.02-.545 2.068-1.049 3.029-1.636l.011-.04zm-9.756 3.152a50.93 50.93 0 0 1-5.207 1.82 50.74 50.74 0 0 1-.65-5.446 72.077 72.077 0 0 0 2.885 1.911c1.01.586 1.99 1.16 2.972 1.715zm-7.546-6.827a50.71 50.71 0 0 1-4.097-3.605 50.7 50.7 0 0 1 4.408-3.309c-.1 1.128-.17 2.276-.21 3.455a65.45 65.45 0 0 0-.051 3.46l-.05-.001zm2.148-9.931a50.72 50.72 0 0 1 1.028-5.388 51 51 0 0 1 5.067 2.178 74.02 74.02 0 0 0-3.055 1.535c-1.02.544-2.039 1.07-3 1.646l-.04.029zm9.694-3.114a51 51 0 0 1 5.207-1.82 50.71 50.71 0 0 1 .65 5.447 72.077 72.077 0 0 0-2.885-1.912 45.044 45.044 0 0 0-2.921-1.733l-.05.018zm7.547 6.828a50.69 50.69 0 0 1 4.166 3.607 50.7 50.7 0 0 1-4.408 3.308c.1-1.127.17-2.275.21-3.454.042-1.18.103-2.358.082-3.48l-.05.019zm-8.88-20.233c2.449.086 4.869 3.853 6.242 10.074a53.94 53.94 0 0 0-6.677 2.379 54 54 0 0 0-6.495-2.839c1.836-6.13 4.532-9.717 6.98-9.632l-.05.018zm-18.933 17.81c.154-.269.24-.571.251-.881a1.94 1.94 0 0 0-1.801-2.004c-.643-1.654-.685-3.026-.09-4.006.752-1.194 2.523-1.773 5.062-1.684a20.76 20.76 0 0 1 3.476.451 33.71 33.71 0 0 1 3.321.887 53.56 53.56 0 0 0-1.244 6.96 53.55 53.55 0 0 0-5.7 4.204 29.61 29.61 0 0 1-3.275-3.927zm5.944 18.32c-4.403.596-7.472-.062-8.401-1.825-1.155-2.162.895-6.153 5.598-10.441a53.54 53.54 0 0 0 5.393 4.59 53.55 53.55 0 0 0 .755 7.031 33.76 33.76 0 0 1-3.345.644zm16.749 5.207l-.09-.003a1.94 1.94 0 0 0-1.677 3.033c-1.164 1.54-2.404 2.357-3.583 2.316-2.448-.085-4.868-3.852-6.242-10.074a53.91 53.91 0 0 0 6.677-2.378 53.9 53.9 0 0 0 6.495 2.838 30.63 30.63 0 0 1-1.58 4.268zm15.276-5.63c-1.06 1.693-4.157 2.136-8.509 1.233a33.73 33.73 0 0 1-3.32-.886 53.59 53.59 0 0 0 1.243-6.961 53.54 53.54 0 0 0 5.7-4.204c4.441 4.628 6.199 8.742 4.896 10.818h-.01z"/>
                <g>
                    <path d="M799.57 38.347a4.67 4.67 0 1 0 4.504 4.83 4.68 4.68 0 0 0-4.504-4.83zm-.272 7.785a3.12 3.12 0 1 1 .218-6.236 3.12 3.12 0 0 1-.218 6.236z"/>
                    <path d="M815.706 43.903c5.065-4.646 7.487-9.254 5.891-12.262-.873-1.641-2.791-2.589-5.555-2.815a1.94 1.94 0 0 0-3.665.082l-.764.093a35.11 35.11 0 0 0-3.465.67c-1.487-6.716-4.273-11.156-7.671-11.275-3.398-.119-6.487 4.086-8.44 10.712a35.09 35.09 0 0 0-3.41-.91c-5.105-1.068-8.712-.374-10.153 1.937-.87 1.39-.823 3.214-.035 5.292a1.93 1.93 0 0 0 1.775 3.324 31.18 31.18 0 0 0 3.281 4.027c-5.065 4.646-7.487 9.255-5.891 12.262.939 1.774 3.116 2.75 6.254 2.86a22.1 22.1 0 0 0 3.74-.22 35.09 35.09 0 0 0 3.465-.669c1.487 6.716 4.274 11.156 7.671 11.275 1.77.061 3.45-1.05 4.93-3.05l.25.009a1.94 1.94 0 0 0 1.58-3.157 32 32 0 0 0 1.68-4.504c1.12.36 2.258.663 3.41.91a22.1 22.1 0 0 0 3.715.48c3.138.109 5.378-.714 6.438-2.418 1.802-2.888-.292-7.664-5.031-12.653zM811.82 30.51l.703-.085a1.94 1.94 0 0 0 3.425-.08c2.165.175 3.663.848 4.263 1.99 1.156 2.161-.895 6.152-5.598 10.44a53.53 53.53 0 0 0-5.393-4.59 53.57 53.57 0 0 0-.755-7.031 33.73 33.73 0 0 1 3.355-.644zm-8.412 19.959a61.254 61.254 0 0 1-4.132 2.007 63.37 63.37 0 0 1-7.795-4.865 67.525 67.525 0 0 1 0-4.593c.055-1.589.17-3.126.32-4.581a73.344 73.344 0 0 1 3.983-2.303 61.254 61.254 0 0 1 4.132-2.007 66.356 66.356 0 0 1 3.983 2.29 68.54 68.54 0 0 1 3.813 2.565 67.525 67.525 0 0 1 0 4.593 67.296 67.296 0 0 1-.32 4.582 52.229 52.229 0 0 1-3.985 2.352l.001-.04zm3.744-.33a50.71 50.71 0 0 1-1.029 5.388 50.94 50.94 0 0 1-5.067-2.178 74.02 74.02 0 0 0 3.056-1.535c1.02-.544 2.067-1.048 3.039-1.635v-.04zm-9.695 3.114a50.93 50.93 0 0 1-5.206 1.82 50.74 50.74 0 0 1-.65-5.447 72.077 72.077 0 0 0 2.884 1.912c.98.625 1.97 1.2 2.96 1.755l.012-.04zm-7.567-6.788a50.71 50.71 0 0 1-4.167-3.608 50.7 50.7 0 0 1 4.408-3.298c-.1 1.127-.17 2.275-.21 3.455-.042 1.179.008 2.321-.031 3.45zm2.148-9.931a50.72 50.72 0 0 1 1.028-5.388 51 51 0 0 1 5.067 2.178 74.02 74.02 0 0 0-3.055 1.535c-1.02.545-2.059 1.069-3.03 1.645l-.01.03zm9.694-3.114a51 51 0 0 1 5.207-1.82 50.71 50.71 0 0 1 .65 5.447 72.077 72.077 0 0 0-2.885-1.912c-.97-.614-1.96-1.19-2.961-1.735l-.01.02zm7.546 6.828a50.69 50.69 0 0 1 4.167 3.607 50.7 50.7 0 0 1-4.408 3.308c.1-1.127.17-2.275.21-3.454.042-1.18.063-2.36.052-3.48l-.02.019zM800.4 20.014c2.449.086 4.869 3.853 6.242 10.074a53.94 53.94 0 0 0-6.677 2.379 54 54 0 0 0-6.495-2.839c1.805-6.13 4.492-9.719 6.94-9.633l-.01.02zm-18.984 17.829c.154-.27.24-.572.251-.882a1.94 1.94 0 0 0-1.8-2.004c-.644-1.654-.686-3.026-.091-4.006.752-1.194 2.523-1.773 5.062-1.684a20.76 20.76 0 0 1 3.476.452 33.71 33.71 0 0 1 3.321.886 53.56 53.56 0 0 0-1.244 6.96 53.55 53.55 0 0 0-5.7 4.204 29.61 29.61 0 0 1-3.264-3.946l-.01.02zm5.945 18.318c-4.404.597-7.473-.06-8.402-1.824-1.155-2.162.895-6.152 5.598-10.44a53.54 53.54 0 0 0 5.393 4.59 53.55 53.55 0 0 0 .755 7.03 33.76 33.76 0 0 1-3.324.625l-.02.02zm16.758 5.218l-.09-.003a1.94 1.94 0 0 0-1.677 3.034c-1.165 1.54-2.404 2.357-3.583 2.316-2.449-.086-4.869-3.852-6.242-10.074a53.91 53.91 0 0 0 6.677-2.378 53.9 53.9 0 0 0 6.495 2.838 30.63 30.63 0 0 1-1.57 4.238l-.01.03zm15.276-5.63c-1.06 1.694-4.158 2.136-8.509 1.234a33.73 33.73 0 0 1-3.32-.887 53.59 53.59 0 0 0 1.243-6.96 53.54 53.54 0 0 0 5.7-4.204c4.442 4.598 6.2 8.712 4.907 10.788l-.021.03z"/>
                </g>
            </g>
        </g>
        <g>
            <path d="M724.63 105.202a1 1 0 0 0-.789 1.123 1 1 0 0 0 1.123.79c2.557-.431 4.154.535 5.202 3.183a1 1 0 0 0 1.14.58l.12.005a1 1 0 0 0 .545-1.262c-1.397-3.551-3.868-4.988-7.34-4.419zM695.718 112.507a1 1 0 1 0 .324 1.913c2.556-.431 4.154.535 5.192 3.183a1 1 0 0 0 1.14.58l.12.004a1 1 0 0 0 .545-1.261c-1.377-3.57-3.847-5.028-7.32-4.419z"/>
            <path d="M739.93 104.045l-4.663 1.178a10.8 10.8 0 0 0-19.89 3.068 5.73 5.73 0 0 0-10.215 2.545 10.8 10.8 0 0 0-18.966 6.732l-4.573 1.151a1 1 0 0 0 .475 1.878l4.21-1.064a8.1 8.1 0 0 0 .204 1.008 10.82 10.82 0 1 0 20.387-6.983 1 1 0 0 0 .014-.42c.006-.17-.442-4.238 2.94-5.09 3.381-.853 4.9 2.923 5.005 3.087a1 1 0 0 0 .248.348 10.81 10.81 0 1 0 21.307-3.558 11.766 11.766 0 0 0-.305-1.011l4.3-1.081a1 1 0 0 0-.474-1.878l-.003.09zm-40.76 22.511a8.88 8.88 0 1 1 6.44-10.781 8.89 8.89 0 0 1-6.438 10.731l-.002.05zm28.912-7.285a8.88 8.88 0 1 1 6.44-10.782 8.89 8.89 0 0 1-6.428 10.732l-.012.05zM1015.204 115.349a1 1 0 0 0-.79 1.123 1 1 0 0 0 1.123.79c2.557-.431 4.154.535 5.202 3.183a1 1 0 0 0 1.14.58l.12.005a1 1 0 0 0 .545-1.262c-1.407-3.551-3.898-4.99-7.34-4.419zM986.281 122.654a1 1 0 1 0 .324 1.913c2.556-.431 4.154.535 5.192 3.183a1 1 0 0 0 1.14.58l.12.004a1 1 0 0 0 .545-1.262c-1.377-3.57-3.837-5.027-7.32-4.418z"/>
            <path d="M1030.494 114.192l-4.664 1.178a10.8 10.8 0 0 0-19.89 3.068 5.73 5.73 0 0 0-10.205 2.545 10.8 10.8 0 0 0-18.966 6.732l-4.573 1.151a1 1 0 1 0 .475 1.878l4.21-1.064a8.1 8.1 0 0 0 .204 1.008 10.82 10.82 0 1 0 20.386-6.983 1 1 0 0 0 .015-.42c.006-.17-.442-4.237 2.94-5.09 3.381-.852 4.9 2.923 5.005 3.087a1 1 0 0 0 .248.348 10.81 10.81 0 1 0 21.297-3.558 11.766 11.766 0 0 0-.305-1.012l4.3-1.08a1 1 0 0 0-.474-1.878l-.003.09zm-40.76 22.511a8.88 8.88 0 1 1 6.44-10.782 8.89 8.89 0 0 1-6.43 10.733l-.01.05zm28.91-7.285a8.88 8.88 0 1 1 6.441-10.782 8.89 8.89 0 0 1-6.428 10.732l-.012.05zM1305.767 125.496a1 1 0 0 0-.79 1.123 1 1 0 0 0 1.123.79c2.557-.432 4.154.535 5.202 3.183a1 1 0 0 0 1.14.58l.12.004a1 1 0 0 0 .545-1.261c-1.397-3.551-3.858-4.988-7.34-4.42zM1276.854 132.801a1 1 0 1 0 .324 1.913c2.556-.431 4.153.535 5.192 3.183a1 1 0 0 0 1.14.58l.12.004a1 1 0 0 0 .544-1.262c-1.376-3.57-3.846-5.027-7.32-4.418z"/>
            <path d="M1321.066 124.339l-4.664 1.178a10.8 10.8 0 0 0-19.889 3.068 5.73 5.73 0 0 0-10.215 2.545 10.8 10.8 0 0 0-18.966 6.732l-4.573 1.151a1 1 0 0 0 .475 1.878l4.21-1.064a8.1 8.1 0 0 0 .204 1.008 10.82 10.82 0 1 0 20.386-6.983 1 1 0 0 0 .015-.42c.006-.17-.442-4.238 2.94-5.09 3.381-.853 4.9 2.923 5.005 3.086a1 1 0 0 0 .248.35 10.81 10.81 0 1 0 21.307-3.56 11.766 11.766 0 0 0-.305-1.01l4.3-1.081a1 1 0 1 0-.474-1.878l-.004.09zm-40.76 22.511a8.88 8.88 0 1 1 6.44-10.782 8.89 8.89 0 0 1-6.438 10.732l-.002.05zm28.912-7.285a8.88 8.88 0 1 1 6.44-10.782 8.89 8.89 0 0 1-6.428 10.732l-.012.05z"/>
            <g>
                <path d="M434.068 95.055a1 1 0 0 0-.79 1.123 1 1 0 0 0 1.124.79c2.556-.43 4.153.535 5.202 3.184a1 1 0 0 0 1.14.58l.12.004a1 1 0 0 0 .544-1.262c-1.407-3.551-3.868-4.988-7.34-4.419zM405.145 102.36a1 1 0 1 0 .324 1.913c2.557-.431 4.154.535 5.192 3.183a1 1 0 0 0 1.14.58l.12.004a1 1 0 0 0 .545-1.261c-1.376-3.57-3.837-5.027-7.32-4.419z"/>
                <path d="M449.358 93.898l-4.664 1.178a10.8 10.8 0 0 0-19.89 3.068 5.73 5.73 0 0 0-10.204 2.545 10.8 10.8 0 0 0-18.967 6.733l-4.573 1.15a1 1 0 0 0-.701 1.177 1 1 0 0 0 1.176.701l4.21-1.063a8.1 8.1 0 0 0 .205 1.007 10.82 10.82 0 1 0 20.386-6.982 1 1 0 0 0 .014-.42c.006-.17-.442-4.238 2.94-5.09 3.382-.853 4.9 2.922 5.005 3.086a1 1 0 0 0 .248.349c.982 5.895 6.557 9.877 12.452 8.895 5.895-.983 9.877-6.558 8.895-12.452a11.766 11.766 0 0 0-.305-1.012l4.3-1.08a1 1 0 1 0-.474-1.878l-.053.088zm-40.749 22.462a8.88 8.88 0 1 1 6.44-10.782 8.89 8.89 0 0 1-6.44 10.782zm28.882-7.287a8.88 8.88 0 1 1 6.44-10.781 8.89 8.89 0 0 1-6.44 10.781z"/>
            </g>
            <g>
                <path d="M724.63 105.202a1 1 0 0 0-.789 1.123 1 1 0 0 0 1.123.79c2.557-.431 4.154.535 5.202 3.183a1 1 0 0 0 1.14.58l.12.005a1 1 0 0 0 .545-1.262c-1.397-3.551-3.868-4.988-7.34-4.419zM695.718 112.507a1 1 0 1 0 .324 1.913c2.556-.431 4.154.535 5.192 3.183a1 1 0 0 0 1.14.58l.12.004a1 1 0 0 0 .545-1.261c-1.377-3.57-3.847-5.028-7.32-4.419z"/>
                <path d="M739.93 104.045l-4.663 1.178a10.8 10.8 0 0 0-19.89 3.068 5.73 5.73 0 0 0-10.215 2.545 10.8 10.8 0 0 0-18.966 6.732l-4.573 1.151a1 1 0 0 0 .475 1.878l4.21-1.064a8.1 8.1 0 0 0 .204 1.008 10.82 10.82 0 1 0 20.387-6.983 1 1 0 0 0 .014-.42c.006-.17-.442-4.238 2.94-5.09 3.381-.853 4.9 2.923 5.005 3.087a1 1 0 0 0 .248.348 10.81 10.81 0 1 0 21.307-3.558 11.766 11.766 0 0 0-.305-1.011l4.3-1.081a1 1 0 0 0-.474-1.878l-.003.09zm-40.76 22.511a8.88 8.88 0 1 1 6.44-10.781 8.89 8.89 0 0 1-6.438 10.731l-.002.05zm28.912-7.285a8.88 8.88 0 1 1 6.44-10.782 8.89 8.89 0 0 1-6.428 10.732l-.012.05z"/>
            </g>
            <g>
                <path d="M1015.204 115.349a1 1 0 0 0-.79 1.123 1 1 0 0 0 1.123.79c2.557-.431 4.154.535 5.202 3.183a1 1 0 0 0 1.14.58l.12.005a1 1 0 0 0 .545-1.262c-1.407-3.551-3.898-4.99-7.34-4.419zM986.281 122.654a1 1 0 1 0 .324 1.913c2.556-.431 4.154.535 5.192 3.183a1 1 0 0 0 1.14.58l.12.004a1 1 0 0 0 .545-1.262c-1.377-3.57-3.837-5.027-7.32-4.418z"/>
                <path d="M1030.494 114.192l-4.664 1.178a10.8 10.8 0 0 0-19.89 3.068 5.73 5.73 0 0 0-10.205 2.545 10.8 10.8 0 0 0-18.966 6.732l-4.573 1.151a1 1 0 1 0 .475 1.878l4.21-1.064a8.1 8.1 0 0 0 .204 1.008 10.82 10.82 0 1 0 20.386-6.983 1 1 0 0 0 .015-.42c.006-.17-.442-4.237 2.94-5.09 3.381-.852 4.9 2.923 5.005 3.087a1 1 0 0 0 .248.348 10.81 10.81 0 1 0 21.297-3.558 11.766 11.766 0 0 0-.305-1.012l4.3-1.08a1 1 0 0 0-.474-1.878l-.003.09zm-40.76 22.511a8.88 8.88 0 1 1 6.44-10.782 8.89 8.89 0 0 1-6.43 10.733l-.01.05zm28.91-7.285a8.88 8.88 0 1 1 6.441-10.782 8.89 8.89 0 0 1-6.428 10.732l-.012.05z"/>
            </g>
            <g>
                <path d="M143.495 84.908a1 1 0 0 0-.79 1.123 1 1 0 0 0 1.124.79c2.556-.43 4.153.535 5.202 3.184a1 1 0 0 0 1.14.58l.12.004a1 1 0 0 0 .544-1.262c-1.396-3.55-3.868-4.988-7.34-4.419zM114.583 92.214a1 1 0 0 0-.79 1.123 1 1 0 0 0 1.123.79c2.557-.432 4.154.535 5.192 3.183a1 1 0 0 0 1.14.58l.12.004a1 1 0 0 0 .545-1.262c-1.396-3.57-3.857-5.027-7.33-4.418z"/>
                <path d="M158.795 83.752l-4.633 1.139a10.83 10.83 0 0 0-11.99-5.052 10.82 10.82 0 0 0-7.899 8.12 5.72 5.72 0 0 0-5.931-2.079 5.71 5.71 0 0 0-4.255 4.654 10.82 10.82 0 0 0-10.809-3.379 10.83 10.83 0 0 0-8.158 10.132l-4.573 1.15a1 1 0 0 0-.702 1.177 1 1 0 0 0 1.177.701l4.21-1.063a8.1 8.1 0 0 0 .204 1.007c1.467 5.789 7.343 9.297 13.135 7.844 5.788-1.468 9.296-7.343 7.843-13.135a10.8 10.8 0 0 0-.592-1.691 1 1 0 0 0 .015-.42c.006-.17-.442-4.238 2.94-5.09 3.381-.853 4.9 2.922 5.005 3.086a1 1 0 0 0 .248.349c.043.6.136 1.196.278 1.78 1.467 5.789 7.342 9.297 13.134 7.844 5.788-1.467 9.297-7.343 7.843-13.135a11.766 11.766 0 0 0-.305-1.01l4.3-1.081a1 1 0 0 0 .702-1.177 1 1 0 0 0-1.187-.671zm-40.76 22.51a8.89 8.89 0 0 1-10.782-6.44 8.89 8.89 0 0 1 6.44-10.781 8.89 8.89 0 0 1 10.782 6.44 8.89 8.89 0 0 1-6.439 10.732l-.002.05zm28.911-7.285a8.89 8.89 0 0 1-10.782-6.44 8.89 8.89 0 0 1 6.44-10.782 8.89 8.89 0 0 1 10.782 6.44 8.89 8.89 0 0 1-6.438 10.732l-.002.05z"/>
                <g>
                    <path d="M434.068 95.055a1 1 0 0 0-.79 1.123 1 1 0 0 0 1.124.79c2.556-.43 4.153.535 5.202 3.184a1 1 0 0 0 1.14.58l.12.004a1 1 0 0 0 .544-1.262c-1.407-3.551-3.868-4.988-7.34-4.419zM405.145 102.36a1 1 0 1 0 .324 1.913c2.557-.431 4.154.535 5.192 3.183a1 1 0 0 0 1.14.58l.12.004a1 1 0 0 0 .545-1.261c-1.376-3.57-3.837-5.027-7.32-4.419z"/>
                    <path d="M449.358 93.898l-4.664 1.178a10.8 10.8 0 0 0-19.89 3.068 5.73 5.73 0 0 0-10.204 2.545 10.8 10.8 0 0 0-18.967 6.733l-4.573 1.15a1 1 0 0 0-.701 1.177 1 1 0 0 0 1.176.701l4.21-1.063a8.1 8.1 0 0 0 .205 1.007 10.82 10.82 0 1 0 20.386-6.982 1 1 0 0 0 .014-.42c.006-.17-.442-4.238 2.94-5.09 3.382-.853 4.9 2.922 5.005 3.086a1 1 0 0 0 .248.349c.982 5.895 6.557 9.877 12.452 8.895 5.895-.983 9.877-6.558 8.895-12.452a11.766 11.766 0 0 0-.305-1.012l4.3-1.08a1 1 0 1 0-.474-1.878l-.053.088zm-40.749 22.462a8.88 8.88 0 1 1 6.44-10.782 8.89 8.89 0 0 1-6.44 10.782zm28.882-7.287a8.88 8.88 0 1 1 6.44-10.781 8.89 8.89 0 0 1-6.44 10.781z"/>
                </g>
                <g>
                    <path d="M724.63 105.202a1 1 0 0 0-.789 1.123 1 1 0 0 0 1.123.79c2.557-.431 4.154.535 5.202 3.183a1 1 0 0 0 1.14.58l.12.005a1 1 0 0 0 .545-1.262c-1.397-3.551-3.868-4.988-7.34-4.419zM695.718 112.507a1 1 0 1 0 .324 1.913c2.556-.431 4.154.535 5.192 3.183a1 1 0 0 0 1.14.58l.12.004a1 1 0 0 0 .545-1.261c-1.377-3.57-3.847-5.028-7.32-4.419z"/>
                    <path d="M739.93 104.045l-4.663 1.178a10.8 10.8 0 0 0-19.89 3.068 5.73 5.73 0 0 0-10.215 2.545 10.8 10.8 0 0 0-18.966 6.732l-4.573 1.151a1 1 0 0 0 .475 1.878l4.21-1.064a8.1 8.1 0 0 0 .204 1.008 10.82 10.82 0 1 0 20.387-6.983 1 1 0 0 0 .014-.42c.006-.17-.442-4.238 2.94-5.09 3.381-.853 4.9 2.923 5.005 3.087a1 1 0 0 0 .248.348 10.81 10.81 0 1 0 21.307-3.558 11.766 11.766 0 0 0-.305-1.011l4.3-1.081a1 1 0 0 0-.474-1.878l-.003.09zm-40.76 22.511a8.88 8.88 0 1 1 6.44-10.781 8.89 8.89 0 0 1-6.438 10.731l-.002.05zm28.912-7.285a8.88 8.88 0 1 1 6.44-10.782 8.89 8.89 0 0 1-6.428 10.732l-.012.05z"/>
                </g>
            </g>
        </g>
        <g>
            <path d="M742.344 39.53a.75.75 0 0 0 .254-.992L725.152 9.182a.75.75 0 0 0-.991-.255l-25.006 14.916a8.25 8.25 0 0 0-3.74 4.803 7.33 7.33 0 0 0 .717 5.838l16.854 28.236a7.59 7.59 0 0 0 10.415 2.625l.47-.284 24.86-14.741a.752.752 0 0 0-.776-1.288l-2.226 1.283-5.673-9.454 2.288-1.33zM724.202 10.6l16.723 28.02-5.55 3.308-16.722-28.02 5.55-3.309zm-26.821 23.077a5.84 5.84 0 0 1-.568-4.652 6.84 6.84 0 0 1 3.067-3.896l17.516-10.455 16.692 28.03-18.906 11.287a6.38 6.38 0 0 0-2.937 3.9c-.007.18-.083.367-.11.546l-14.754-24.76zm25.713 30.136a6.94 6.94 0 0 1-4.981.827 5.93 5.93 0 0 1-3.908-2.718 4.91 4.91 0 0 1 1.725-6.704l18.915-11.287 5.674 9.454-17.425 10.428zm21.39-12.771l-2.668 1.588-5.673-9.454 2.667-1.588 5.673 9.454z"/>
            <path d="M733.153 48.285l-14.216 8.509a.752.752 0 0 0 .775 1.288l14.216-8.51a.752.752 0 0 0-.775-1.287zM735.081 51.514l-10.342 6.173a.752.752 0 0 0 .776 1.288l10.342-6.173a.752.752 0 1 0-.776-1.288zM1032.927 49.678a.75.75 0 0 0 .254-.992l-17.498-29.309a.75.75 0 0 0-.991-.254l-25.044 14.865a8.25 8.25 0 0 0-3.74 4.802 7.33 7.33 0 0 0 .717 5.839l16.854 28.235a7.59 7.59 0 0 0 10.415 2.625l.47-.284 24.96-14.738a.752.752 0 0 0-.776-1.287l-2.238 1.332-5.673-9.454 2.29-1.38zm-18.142-28.931l16.722 28.02-5.548 3.309-16.723-28.02 5.55-3.31zm-26.822 23.078a5.84 5.84 0 0 1-.568-4.653 6.84 6.84 0 0 1 3.068-3.895l17.516-10.455 16.722 28.02-18.915 11.287a6.38 6.38 0 0 0-2.938 3.9c-.007.18-.083.367-.11.547l-14.775-24.751zm25.714 30.136a6.94 6.94 0 0 1-4.982.826 5.93 5.93 0 0 1-3.907-2.718 4.91 4.91 0 0 1 1.725-6.704l18.915-11.286 5.674 9.453-17.425 10.429zm21.39-12.772l-2.668 1.588-5.673-9.454 2.667-1.588 5.673 9.454z"/>
            <path d="M1023.715 58.431l-14.215 8.51a.752.752 0 0 0 .775 1.287l14.216-8.509a.752.752 0 0 0-.776-1.288zM1025.644 61.66l-10.362 6.173a.752.752 0 0 0 .776 1.288l10.401-6.171a.752.752 0 0 0-.775-1.288l-.04-.001zM1323.48 59.824a.75.75 0 0 0 .254-.992l-17.498-29.308a.75.75 0 0 0-.991-.255l-25.006 14.916a8.25 8.25 0 0 0-3.74 4.803 7.33 7.33 0 0 0 .717 5.838l16.855 28.236a7.59 7.59 0 0 0 10.414 2.625l.47-.284 24.942-14.789a.752.752 0 0 0-.776-1.287l-2.238 1.332-5.673-9.453 2.27-1.382zm-18.132-28.93l16.722 28.02-5.549 3.309-16.722-28.021 5.549-3.309zm-26.822 23.077a5.84 5.84 0 0 1-.568-4.652 6.84 6.84 0 0 1 3.068-3.895l17.516-10.456 16.722 28.021-18.915 11.287a6.38 6.38 0 0 0-2.938 3.9c-.007.18-.083.367-.11.546l-14.775-24.75zm25.714 30.136a6.94 6.94 0 0 1-4.982.827 5.93 5.93 0 0 1-3.907-2.718 4.91 4.91 0 0 1 1.725-6.704l18.915-11.287 5.674 9.454-17.425 10.428zm21.389-12.771l-2.667 1.588-5.674-9.454 2.667-1.588 5.674 9.454z"/>
            <path d="M1314.288 68.578l-14.215 8.51a.752.752 0 0 0 .775 1.287l14.216-8.509a.752.752 0 0 0-.776-1.288zM1316.217 71.808l-10.342 6.173a.752.752 0 0 0 .776 1.287l10.341-6.172a.752.752 0 0 0-.775-1.288z"/>
            <g>
                <path d="M451.78 29.383a.75.75 0 0 0 .256-.991L434.549-.966a.75.75 0 0 0-.991-.255l-25.046 14.915a8.25 8.25 0 0 0-3.74 4.802 7.33 7.33 0 0 0 .717 5.829l16.855 28.235a7.59 7.59 0 0 0 10.46 2.737l.471-.284 24.913-14.84a.752.752 0 0 0-.775-1.287l-2.238 1.333-5.674-9.454 2.28-1.382zM433.64.453l16.672 28.019-5.55 3.308-16.671-28.019 5.548-3.308zM406.817 23.53a5.84 5.84 0 0 1-.568-4.653 6.84 6.84 0 0 1 3.067-3.895l17.516-10.455 16.692 28.03-18.915 11.286a6.38 6.38 0 0 0-2.938 3.9c-.007.18-.083.367-.11.546l-14.744-24.76zm25.714 30.135a6.94 6.94 0 0 1-4.982.827 5.93 5.93 0 0 1-3.908-2.718 4.91 4.91 0 0 1 1.725-6.704l18.916-11.287 5.673 9.454-17.424 10.428zm21.347-12.722l-2.667 1.588-5.674-9.454 2.667-1.588 5.674 9.454z"/>
                <path d="M442.58 38.138l-14.216 8.509a.752.752 0 0 0 .776 1.288l14.215-8.51a.752.752 0 0 0-.775-1.287zM444.508 41.367l-10.342 6.173a.752.752 0 0 0 .776 1.288l10.342-6.173a.752.752 0 1 0-.776-1.288z"/>
            </g>
            <g>
                <path d="M742.344 39.53a.75.75 0 0 0 .254-.992L725.152 9.182a.75.75 0 0 0-.991-.255l-25.006 14.916a8.25 8.25 0 0 0-3.74 4.803 7.33 7.33 0 0 0 .717 5.838l16.854 28.236a7.59 7.59 0 0 0 10.415 2.625l.47-.284 24.86-14.741a.752.752 0 0 0-.776-1.288l-2.226 1.283-5.673-9.454 2.288-1.33zM724.202 10.6l16.723 28.02-5.55 3.308-16.722-28.02 5.55-3.309zm-26.821 23.077a5.84 5.84 0 0 1-.568-4.652 6.84 6.84 0 0 1 3.067-3.896l17.516-10.455 16.692 28.03-18.906 11.287a6.38 6.38 0 0 0-2.937 3.9c-.007.18-.083.367-.11.546l-14.754-24.76zm25.713 30.136a6.94 6.94 0 0 1-4.981.827 5.93 5.93 0 0 1-3.908-2.718 4.91 4.91 0 0 1 1.725-6.704l18.915-11.287 5.674 9.454-17.425 10.428zm21.39-12.771l-2.668 1.588-5.673-9.454 2.667-1.588 5.673 9.454z"/>
                <path d="M733.153 48.285l-14.216 8.509a.752.752 0 0 0 .775 1.288l14.216-8.51a.752.752 0 0 0-.775-1.287zM735.081 51.514l-10.342 6.173a.752.752 0 0 0 .776 1.288l10.342-6.173a.752.752 0 1 0-.776-1.288z"/>
            </g>
            <g>
                <path d="M1032.927 49.678a.75.75 0 0 0 .254-.992l-17.498-29.309a.75.75 0 0 0-.991-.254l-25.044 14.865a8.25 8.25 0 0 0-3.74 4.802 7.33 7.33 0 0 0 .717 5.839l16.854 28.235a7.59 7.59 0 0 0 10.415 2.625l.47-.284 24.96-14.738a.752.752 0 0 0-.776-1.287l-2.238 1.332-5.673-9.454 2.29-1.38zm-18.142-28.931l16.722 28.02-5.548 3.309-16.723-28.02 5.55-3.31zm-26.822 23.078a5.84 5.84 0 0 1-.568-4.653 6.84 6.84 0 0 1 3.068-3.895l17.516-10.455 16.722 28.02-18.915 11.287a6.38 6.38 0 0 0-2.938 3.9c-.007.18-.083.367-.11.547l-14.775-24.751zm25.714 30.136a6.94 6.94 0 0 1-4.982.826 5.93 5.93 0 0 1-3.907-2.718 4.91 4.91 0 0 1 1.725-6.704l18.915-11.286 5.674 9.453-17.425 10.429zm21.39-12.772l-2.668 1.588-5.673-9.454 2.667-1.588 5.673 9.454z"/>
                <path d="M1023.715 58.431l-14.215 8.51a.752.752 0 0 0 .775 1.287l14.216-8.509a.752.752 0 0 0-.776-1.288zM1025.644 61.66l-10.362 6.173a.752.752 0 0 0 .776 1.288l10.401-6.171a.752.752 0 0 0-.775-1.288l-.04-.001z"/>
            </g>
            <g>
                <path d="M161.208 19.236a.75.75 0 0 0 .255-.991l-17.498-29.309a.75.75 0 0 0-.992-.255L117.98 3.548a8.25 8.25 0 0 0-3.74 4.803 7.33 7.33 0 0 0 .717 5.838l16.855 28.236a7.65 7.65 0 0 0 4.7 3.526 7.65 7.65 0 0 0 5.75-.8l.471-.284 24.893-14.84a.75.75 0 0 0 .255-.992.75.75 0 0 0-.992-.254l-2.238 1.332-5.673-9.454 2.23-1.423zm-18.142-28.93l16.723 28.02-5.55 3.309-16.721-28.02 5.548-3.31zm-26.821 23.078a5.84 5.84 0 0 1-.568-4.653 6.84 6.84 0 0 1 3.068-3.895L136.26-5.62l16.722 28.02-18.915 11.287a6.38 6.38 0 0 0-2.938 3.9c-.006.18-.083.367-.109.546l-14.775-24.75zm25.714 30.135a6.94 6.94 0 0 1-4.982.827 5.93 5.93 0 0 1-3.908-2.718 4.88 4.88 0 0 1-.521-3.69 4.88 4.88 0 0 1 2.247-3.024l18.915-11.287 5.674 9.454-17.425 10.438zm21.388-12.77l-2.667 1.587-5.673-9.454 2.667-1.588 5.673 9.454z"/>
                <path d="M152.007 27.99L137.79 36.5a.75.75 0 0 0-.255.991.75.75 0 0 0 .992.255l14.216-8.509a.75.75 0 0 0 .254-.992.75.75 0 0 0-.991-.254zM153.935 31.22l-10.342 6.173a.75.75 0 0 0-.254.992.75.75 0 0 0 .991.254l10.342-6.173a.75.75 0 0 0 .255-.991.75.75 0 0 0-.992-.255z"/>
                <g>
                    <path d="M451.78 29.383a.75.75 0 0 0 .256-.991L434.549-.966a.75.75 0 0 0-.991-.255l-25.046 14.915a8.25 8.25 0 0 0-3.74 4.802 7.33 7.33 0 0 0 .717 5.829l16.855 28.235a7.59 7.59 0 0 0 10.46 2.737l.471-.284 24.913-14.84a.752.752 0 0 0-.775-1.287l-2.238 1.333-5.674-9.454 2.28-1.382zM433.64.453l16.672 28.019-5.55 3.308-16.671-28.019 5.548-3.308zM406.817 23.53a5.84 5.84 0 0 1-.568-4.653 6.84 6.84 0 0 1 3.067-3.895l17.516-10.455 16.692 28.03-18.915 11.286a6.38 6.38 0 0 0-2.938 3.9c-.007.18-.083.367-.11.546l-14.744-24.76zm25.714 30.135a6.94 6.94 0 0 1-4.982.827 5.93 5.93 0 0 1-3.908-2.718 4.91 4.91 0 0 1 1.725-6.704l18.916-11.287 5.673 9.454-17.424 10.428zm21.347-12.722l-2.667 1.588-5.674-9.454 2.667-1.588 5.674 9.454z"/>
                    <path d="M442.58 38.138l-14.216 8.509a.752.752 0 0 0 .776 1.288l14.215-8.51a.752.752 0 0 0-.775-1.287zM444.508 41.367l-10.342 6.173a.752.752 0 0 0 .776 1.288l10.342-6.173a.752.752 0 1 0-.776-1.288z"/>
                </g>
                <g>
                    <path d="M742.344 39.53a.75.75 0 0 0 .254-.992L725.152 9.182a.75.75 0 0 0-.991-.255l-25.006 14.916a8.25 8.25 0 0 0-3.74 4.803 7.33 7.33 0 0 0 .717 5.838l16.854 28.236a7.59 7.59 0 0 0 10.415 2.625l.47-.284 24.86-14.741a.752.752 0 0 0-.776-1.288l-2.226 1.283-5.673-9.454 2.288-1.33zM724.202 10.6l16.723 28.02-5.55 3.308-16.722-28.02 5.55-3.309zm-26.821 23.077a5.84 5.84 0 0 1-.568-4.652 6.84 6.84 0 0 1 3.067-3.896l17.516-10.455 16.692 28.03-18.906 11.287a6.38 6.38 0 0 0-2.937 3.9c-.007.18-.083.367-.11.546l-14.754-24.76zm25.713 30.136a6.94 6.94 0 0 1-4.981.827 5.93 5.93 0 0 1-3.908-2.718 4.91 4.91 0 0 1 1.725-6.704l18.915-11.287 5.674 9.454-17.425 10.428zm21.39-12.771l-2.668 1.588-5.673-9.454 2.667-1.588 5.673 9.454z"/>
                    <path d="M733.153 48.285l-14.216 8.509a.752.752 0 0 0 .775 1.288l14.216-8.51a.752.752 0 0 0-.775-1.287zM735.081 51.514l-10.342 6.173a.752.752 0 0 0 .776 1.288l10.342-6.173a.752.752 0 1 0-.776-1.288z"/>
                </g>
            </g>
        </g>
        <g>
            <path d="M830.821 119.657a.74.74 0 0 0-.154-.736l-11.325-12.103a9.45 9.45 0 0 0 4.725-.055 4.84 4.84 0 0 0 3.8-3.099 3.47 3.47 0 0 0-.781-3.41 4.84 4.84 0 0 0-4.765-1.076 11.83 11.83 0 0 0-2.694.906 11.85 11.85 0 0 0 1.093-2.623 4.84 4.84 0 0 0-.742-4.83 3.47 3.47 0 0 0-3.347-1.017 4.84 4.84 0 0 0-3.357 3.576 9.45 9.45 0 0 0-.384 4.709l-10.986-11.78a.74.74 0 0 0-.662-.224c-4.912.83-7.706 3.463-8.278 7.806a.74.74 0 0 0 .19.607l8.159 8.75-10.199 2.356a.74.74 0 0 0-.315 1.28l2.585 2.19-1.359 3.105a.74.74 0 0 0 .104.754.74.74 0 0 0 .683.224l13.2-2.65-3.565 12.983a.74.74 0 0 0 .176.697.74.74 0 0 0 .745.156l3.191-1.14 2.006 2.732a.74.74 0 0 0 1.299-.225l3.138-9.916 8.883 9.525a.74.74 0 0 0 .653.223c3.976-.681 6.757-3.256 8.283-7.695zm-24.613-11.506l6.63-6.183 4.427 4.748-6.63 6.182-4.427-4.747zm16.414-7.582a3.43 3.43 0 0 1 3.36.648 2 2 0 0 1 .45 2.017 3.43 3.43 0 0 1-2.725 2.086c-3.952.862-5.522-.593-5.964-1.129.174-.674.884-2.68 4.91-3.62l-.03-.002zm-7.932-4.95a3.43 3.43 0 0 1 2.271-2.572 2 2 0 0 1 1.981.59 3.43 3.43 0 0 1 .412 3.396c-1.22 3.96-3.28 4.508-3.933 4.585-.485-.427-1.897-2.107-.712-5.968l-.019-.03zm2.042 7.136a4.55 4.55 0 0 0-.35.878l-.56-.6a4.55 4.55 0 0 0 .941-.307l-.03.029zM801.11 89.41l10.715 11.491-6.63 6.183-10.714-11.531c.588-3.372 2.77-5.377 6.659-6.142h-.03zm-7.188 23.864l1.012-2.316a.73.73 0 0 0-.2-.857l-1.885-1.607 9.603-2.216 4.041 4.333-.005.14-12.566 2.523zm15.014 12.482l-1.471-1.993a.73.73 0 0 0-.842-.26l-2.38.848 3.431-12.328.14.005 4.042 4.334-2.92 9.394zm13.727.039l-11.024-11.822 6.63-6.183 10.995 11.791c-1.305 3.547-3.467 5.583-6.571 6.215l-.03-.001zM1121.384 129.803a.74.74 0 0 0-.154-.735l-11.315-12.103a9.45 9.45 0 0 0 4.725-.055 4.84 4.84 0 0 0 3.8-3.099 3.47 3.47 0 0 0-.781-3.41 4.84 4.84 0 0 0-4.765-1.076 11.83 11.83 0 0 0-2.694.906 11.85 11.85 0 0 0 1.093-2.623 4.84 4.84 0 0 0-.742-4.83 3.47 3.47 0 0 0-3.347-1.016 4.84 4.84 0 0 0-3.357 3.575 9.45 9.45 0 0 0-.384 4.709l-10.986-11.78a.74.74 0 0 0-.663-.224c-4.911.83-7.705 3.463-8.277 7.806a.74.74 0 0 0 .189.607l8.16 8.75-10.199 2.356a.74.74 0 0 0-.315 1.28l2.585 2.191-1.359 3.104a.74.74 0 0 0 .104.755.74.74 0 0 0 .683.223l13.239-2.61-3.566 12.984a.74.74 0 0 0 .176.697.74.74 0 0 0 .745.156l3.192-1.14 2.006 2.732a.74.74 0 0 0 1.298-.224l3.1-9.958 8.883 9.526a.74.74 0 0 0 .652.222c3.967-.682 6.758-3.256 8.274-7.696zm-24.613-11.506l6.63-6.182 4.426 4.747-6.63 6.183-4.426-4.748zm16.414-7.581a3.43 3.43 0 0 1 3.36.647 2 2 0 0 1 .45 2.017 3.43 3.43 0 0 1-2.725 2.086c-3.952.863-5.523-.593-5.964-1.128.183-.674.884-2.681 4.91-3.621l-.03-.001zm-7.932-4.95a3.43 3.43 0 0 1 2.271-2.572 2 2 0 0 1 1.98.59 3.43 3.43 0 0 1 .413 3.395c-1.22 3.96-3.28 4.509-3.933 4.586-.475-.427-1.887-2.107-.702-5.968l-.029-.031zm2.042 7.135a4.55 4.55 0 0 0-.35.879l-.56-.6a4.55 4.55 0 0 0 .951-.307l-.04.028zm-15.623-13.343l10.715 11.491-6.63 6.182-10.754-11.532c.638-3.37 2.82-5.375 6.698-6.14h-.03zm-7.188 23.864l1.012-2.316a.73.73 0 0 0-.2-.858l-1.886-1.607 9.604-2.216 4.04 4.334-.004.14-12.566 2.523zm15.014 12.481l-1.472-1.992a.73.73 0 0 0-.841-.26l-2.381.848 3.432-12.328.14.005 4.041 4.334-2.92 9.393zm13.727.04L1102.2 124.12l6.63-6.183 10.995 11.791c-1.295 3.547-3.457 5.583-6.571 6.215l-.03-.002zM1412.007 139.952a.74.74 0 0 0-.155-.736l-11.404-12.105a9.45 9.45 0 0 0 4.725-.055 4.84 4.84 0 0 0 3.8-3.1 3.47 3.47 0 0 0-.781-3.409 4.84 4.84 0 0 0-4.766-1.077 11.83 11.83 0 0 0-2.693.907 11.85 11.85 0 0 0 1.092-2.624 4.84 4.84 0 0 0-.741-4.828 3.47 3.47 0 0 0-3.347-1.018 4.84 4.84 0 0 0-3.357 3.575 9.45 9.45 0 0 0-.384 4.71l-10.906-11.788a.74.74 0 0 0-.662-.223c-4.912.829-7.706 3.463-8.278 7.805a.74.74 0 0 0 .19.607l8.159 8.75-10.199 2.356a.74.74 0 0 0-.315 1.28l2.586 2.191-1.39 3.104a.74.74 0 0 0 .104.754.74.74 0 0 0 .683.224l13.2-2.651-3.565 12.983a.74.74 0 0 0 .176.697.74.74 0 0 0 .745.156l3.192-1.14 2.005 2.732a.74.74 0 0 0 1.3-.224l3.117-9.908 8.883 9.526a.74.74 0 0 0 .652.223c3.977-.682 6.758-3.256 8.334-7.694zm-24.614-11.506l6.63-6.182 4.426 4.777-6.63 6.183-4.426-4.778zm16.415-7.582a3.43 3.43 0 0 1 3.36.648 2 2 0 0 1 .45 2.017 3.43 3.43 0 0 1-2.725 2.086c-3.953.863-5.523-.593-5.964-1.129.123-.676.834-2.682 4.86-3.622h.02zm-7.973-4.92a3.43 3.43 0 0 1 2.271-2.573 2 2 0 0 1 1.98.59 3.43 3.43 0 0 1 .412 3.396c-1.218 3.96-3.279 4.508-3.932 4.585-.494-.457-1.867-2.136-.731-5.999zm2.042 7.135a4.55 4.55 0 0 0-.35.878l-.56-.6a4.55 4.55 0 0 0 .932-.337l-.022.059zm-15.624-13.344l10.716 11.491-6.63 6.183-10.744-11.522c.609-3.411 2.79-5.416 6.68-6.18l-.022.028zm-7.187 23.864l1.012-2.316a.73.73 0 0 0-.2-.857l-1.886-1.607 9.603-2.216 4.042 4.333-.005.14-12.566 2.523zm15.014 12.482l-1.472-1.993a.73.73 0 0 0-.841-.26l-2.381.848 3.432-12.328.14.005 4.041 4.334-2.92 9.394zm13.727.039l-11.013-11.852 6.62-6.192 10.995 11.79c-1.305 3.557-3.467 5.593-6.621 6.223l.019.03z"/>
            <g>
                <path d="M540.248 109.51a.74.74 0 0 0-.154-.736L528.769 96.67a9.45 9.45 0 0 0 4.725-.055 4.84 4.84 0 0 0 3.8-3.099 3.47 3.47 0 0 0-.78-3.41 4.84 4.84 0 0 0-4.766-1.076 11.83 11.83 0 0 0-2.693.906 11.85 11.85 0 0 0 1.092-2.623 4.84 4.84 0 0 0-.742-4.83 3.47 3.47 0 0 0-3.347-1.017 4.84 4.84 0 0 0-3.357 3.575 9.45 9.45 0 0 0-.384 4.71l-10.986-11.78a.74.74 0 0 0-.662-.224c-4.912.83-7.706 3.463-8.278 7.806a.74.74 0 0 0 .19.607l8.159 8.75-10.199 2.356a.74.74 0 0 0-.314 1.28l2.594 2.221-1.36 3.105a.74.74 0 0 0 .104.754.74.74 0 0 0 .683.224l13.2-2.651-3.565 12.983a.74.74 0 0 0 .176.697.74.74 0 0 0 .745.156l3.192-1.14 2.005 2.732a.74.74 0 0 0 1.299-.224l3.14-9.947 8.882 9.526a.74.74 0 0 0 .653.223c3.966-.682 6.747-3.257 8.273-7.696zm-24.613-11.506l6.63-6.183 4.427 4.748-6.63 6.182-4.427-4.747zm16.414-7.582a3.43 3.43 0 0 1 3.36.648 2 2 0 0 1 .45 2.017 3.43 3.43 0 0 1-2.725 2.086c-3.952.862-5.522-.593-5.964-1.13.184-.673.884-2.68 4.91-3.62l-.03-.001zm-7.932-4.95a3.43 3.43 0 0 1 2.272-2.572 2 2 0 0 1 1.98.59 3.43 3.43 0 0 1 .412 3.396c-1.22 3.96-3.28 4.508-3.933 4.585-.485-.427-1.897-2.107-.702-5.968l-.029-.03zm2.043 7.136a4.55 4.55 0 0 0-.351.878l-.56-.6a4.55 4.55 0 0 0 .942-.307l-.031.029zm-15.584-13.342l10.715 11.49-6.63 6.183-10.744-11.522c.558-3.382 2.77-5.386 6.659-6.151zm-7.188 23.864l1.012-2.317a.73.73 0 0 0-.2-.857l-1.885-1.607 9.603-2.216 4.041 4.334-.005.14-12.566 2.523zm15.014 12.481l-1.471-1.992a.73.73 0 0 0-.842-.26l-2.38.847 3.432-12.327.14.005 4.04 4.333-2.919 9.394zm13.727.04l-11.024-11.823 6.63-6.182 10.995 11.79c-1.315 3.547-3.497 5.582-6.611 6.214h.01zM830.821 119.657a.74.74 0 0 0-.154-.736l-11.325-12.103a9.45 9.45 0 0 0 4.725-.055 4.84 4.84 0 0 0 3.8-3.099 3.47 3.47 0 0 0-.781-3.41 4.84 4.84 0 0 0-4.765-1.076 11.83 11.83 0 0 0-2.694.906 11.85 11.85 0 0 0 1.093-2.623 4.84 4.84 0 0 0-.742-4.83 3.47 3.47 0 0 0-3.347-1.017 4.84 4.84 0 0 0-3.357 3.576 9.45 9.45 0 0 0-.384 4.709l-10.986-11.78a.74.74 0 0 0-.662-.224c-4.912.83-7.706 3.463-8.278 7.806a.74.74 0 0 0 .19.607l8.159 8.75-10.199 2.356a.74.74 0 0 0-.315 1.28l2.585 2.19-1.359 3.105a.74.74 0 0 0 .104.754.74.74 0 0 0 .683.224l13.2-2.65-3.565 12.983a.74.74 0 0 0 .176.697.74.74 0 0 0 .745.156l3.191-1.14 2.006 2.732a.74.74 0 0 0 1.299-.225l3.138-9.916 8.883 9.525a.74.74 0 0 0 .653.223c3.976-.681 6.757-3.256 8.283-7.695zm-24.613-11.506l6.63-6.183 4.427 4.748-6.63 6.182-4.427-4.747zm16.414-7.582a3.43 3.43 0 0 1 3.36.648 2 2 0 0 1 .45 2.017 3.43 3.43 0 0 1-2.725 2.086c-3.952.862-5.522-.593-5.964-1.129.174-.674.884-2.68 4.91-3.62l-.03-.002zm-7.932-4.95a3.43 3.43 0 0 1 2.271-2.572 2 2 0 0 1 1.981.59 3.43 3.43 0 0 1 .412 3.396c-1.22 3.96-3.28 4.508-3.933 4.585-.485-.427-1.897-2.107-.712-5.968l-.019-.03zm2.042 7.136a4.55 4.55 0 0 0-.35.878l-.56-.6a4.55 4.55 0 0 0 .941-.307l-.03.029zM801.11 89.41l10.715 11.491-6.63 6.183-10.714-11.531c.588-3.372 2.77-5.377 6.659-6.142h-.03zm-7.188 23.864l1.012-2.316a.73.73 0 0 0-.2-.857l-1.885-1.607 9.603-2.216 4.041 4.333-.005.14-12.566 2.523zm15.014 12.482l-1.471-1.993a.73.73 0 0 0-.842-.26l-2.38.848 3.431-12.328.14.005 4.042 4.334-2.92 9.394zm13.727.039l-11.024-11.822 6.63-6.183 10.995 11.791c-1.305 3.547-3.467 5.583-6.571 6.215l-.03-.001zM1121.384 129.803a.74.74 0 0 0-.154-.735l-11.315-12.103a9.45 9.45 0 0 0 4.725-.055 4.84 4.84 0 0 0 3.8-3.099 3.47 3.47 0 0 0-.781-3.41 4.84 4.84 0 0 0-4.765-1.076 11.83 11.83 0 0 0-2.694.906 11.85 11.85 0 0 0 1.093-2.623 4.84 4.84 0 0 0-.742-4.83 3.47 3.47 0 0 0-3.347-1.016 4.84 4.84 0 0 0-3.357 3.575 9.45 9.45 0 0 0-.384 4.709l-10.986-11.78a.74.74 0 0 0-.663-.224c-4.911.83-7.705 3.463-8.277 7.806a.74.74 0 0 0 .189.607l8.16 8.75-10.199 2.356a.74.74 0 0 0-.315 1.28l2.585 2.191-1.359 3.104a.74.74 0 0 0 .104.755.74.74 0 0 0 .683.223l13.239-2.61-3.566 12.984a.74.74 0 0 0 .176.697.74.74 0 0 0 .745.156l3.192-1.14 2.006 2.732a.74.74 0 0 0 1.298-.224l3.1-9.958 8.883 9.526a.74.74 0 0 0 .652.222c3.967-.682 6.758-3.256 8.274-7.696zm-24.613-11.506l6.63-6.182 4.426 4.747-6.63 6.183-4.426-4.748zm16.414-7.581a3.43 3.43 0 0 1 3.36.647 2 2 0 0 1 .45 2.017 3.43 3.43 0 0 1-2.725 2.086c-3.952.863-5.523-.593-5.964-1.128.183-.674.884-2.681 4.91-3.621l-.03-.001zm-7.932-4.95a3.43 3.43 0 0 1 2.271-2.572 2 2 0 0 1 1.98.59 3.43 3.43 0 0 1 .413 3.395c-1.22 3.96-3.28 4.509-3.933 4.586-.475-.427-1.887-2.107-.702-5.968l-.029-.031zm2.042 7.135a4.55 4.55 0 0 0-.35.879l-.56-.6a4.55 4.55 0 0 0 .951-.307l-.04.028zm-15.623-13.343l10.715 11.491-6.63 6.182-10.754-11.532c.638-3.37 2.82-5.375 6.698-6.14h-.03zm-7.188 23.864l1.012-2.316a.73.73 0 0 0-.2-.858l-1.886-1.607 9.604-2.216 4.04 4.334-.004.14-12.566 2.523zm15.014 12.481l-1.472-1.992a.73.73 0 0 0-.841-.26l-2.381.848 3.432-12.328.14.005 4.041 4.334-2.92 9.393zm13.727.04L1102.2 124.12l6.63-6.183 10.995 11.791c-1.295 3.547-3.457 5.583-6.571 6.215l-.03-.002z"/>
            </g>
            <g>
                <path d="M249.715 99.364a.74.74 0 0 0-.154-.736l-11.405-12.105a9.45 9.45 0 0 0 4.725-.055 4.84 4.84 0 0 0 3.8-3.1 3.47 3.47 0 0 0-.78-3.409 4.84 4.84 0 0 0-4.766-1.077 11.83 11.83 0 0 0-2.693.907 11.85 11.85 0 0 0 1.092-2.624 4.84 4.84 0 0 0-.742-4.829 3.47 3.47 0 0 0-3.347-1.017 4.84 4.84 0 0 0-3.356 3.575 9.45 9.45 0 0 0-.385 4.71l-10.905-11.788a.74.74 0 0 0-.663-.224c-4.912.83-7.705 3.464-8.277 7.806a.74.74 0 0 0 .189.607l8.16 8.75-10.2 2.356a.74.74 0 0 0-.314 1.28l2.585 2.191-1.36 3.105a.74.74 0 0 0 .105.754.74.74 0 0 0 .682.224l13.249-2.6-3.565 12.984a.74.74 0 0 0 .176.697.74.74 0 0 0 .745.156l3.191-1.14 2.006 2.732a.74.74 0 0 0 1.299-.225l3.06-10.009 8.884 9.526a.74.74 0 0 0 .653.223c3.974-.632 6.756-3.206 8.311-7.645zm-24.613-11.506l6.63-6.182 4.426 4.777-6.63 6.183-4.426-4.778zm16.415-7.582a3.43 3.43 0 0 1 3.359.648 2 2 0 0 1 .45 2.017 3.43 3.43 0 0 1-2.725 2.086c-3.952.863-5.522-.593-5.964-1.129.144-.675.854-2.682 4.87-3.622h.01zm-7.974-4.92a3.43 3.43 0 0 1 2.272-2.573 2 2 0 0 1 1.98.59 3.43 3.43 0 0 1 .412 3.396c-1.219 3.96-3.28 4.508-3.932 4.585-.475-.457-1.867-2.136-.732-5.999zm2.043 7.135a4.55 4.55 0 0 0-.351.878l-.56-.6a4.55 4.55 0 0 0 .953-.337l-.042.059zm-15.624-13.344l10.715 11.491-6.63 6.183-10.744-11.522c.63-3.41 2.81-5.415 6.7-6.18l-.041.028zm-7.187 23.864l1.011-2.316a.73.73 0 0 0-.2-.858l-1.885-1.606 9.603-2.217 4.041 4.334-.005.14-12.565 2.523zm15.013 12.482l-1.471-1.993a.73.73 0 0 0-.842-.26l-2.38.848 3.432-12.328.14.005 4.04 4.334-2.919 9.394zm13.727.039L230.491 93.71l6.631-6.223 10.995 11.791c-1.295 3.557-3.457 5.593-6.57 6.225l-.032.029zM540.248 109.51a.74.74 0 0 0-.154-.736L528.769 96.67a9.45 9.45 0 0 0 4.725-.055 4.84 4.84 0 0 0 3.8-3.099 3.47 3.47 0 0 0-.78-3.41 4.84 4.84 0 0 0-4.766-1.076 11.83 11.83 0 0 0-2.693.906 11.85 11.85 0 0 0 1.092-2.623 4.84 4.84 0 0 0-.742-4.83 3.47 3.47 0 0 0-3.347-1.017 4.84 4.84 0 0 0-3.357 3.575 9.45 9.45 0 0 0-.384 4.71l-10.986-11.78a.74.74 0 0 0-.662-.224c-4.912.83-7.706 3.463-8.278 7.806a.74.74 0 0 0 .19.607l8.159 8.75-10.199 2.356a.74.74 0 0 0-.314 1.28l2.594 2.221-1.36 3.105a.74.74 0 0 0 .104.754.74.74 0 0 0 .683.224l13.2-2.651-3.565 12.983a.74.74 0 0 0 .176.697.74.74 0 0 0 .745.156l3.192-1.14 2.005 2.732a.74.74 0 0 0 1.299-.224l3.14-9.947 8.882 9.526a.74.74 0 0 0 .653.223c3.966-.682 6.747-3.257 8.273-7.696zm-24.613-11.506l6.63-6.183 4.427 4.748-6.63 6.182-4.427-4.747zm16.414-7.582a3.43 3.43 0 0 1 3.36.648 2 2 0 0 1 .45 2.017 3.43 3.43 0 0 1-2.725 2.086c-3.952.862-5.522-.593-5.964-1.13.184-.673.884-2.68 4.91-3.62l-.03-.001zm-7.932-4.95a3.43 3.43 0 0 1 2.272-2.572 2 2 0 0 1 1.98.59 3.43 3.43 0 0 1 .412 3.396c-1.22 3.96-3.28 4.508-3.933 4.585-.485-.427-1.897-2.107-.702-5.968l-.029-.03zm2.043 7.136a4.55 4.55 0 0 0-.351.878l-.56-.6a4.55 4.55 0 0 0 .942-.307l-.031.029zm-15.584-13.342l10.715 11.49-6.63 6.183-10.744-11.522c.558-3.382 2.77-5.386 6.659-6.151zm-7.188 23.864l1.012-2.317a.73.73 0 0 0-.2-.857l-1.885-1.607 9.603-2.216 4.041 4.334-.005.14-12.566 2.523zm15.014 12.481l-1.471-1.992a.73.73 0 0 0-.842-.26l-2.38.847 3.432-12.327.14.005 4.04 4.333-2.919 9.394zm13.727.04l-11.024-11.823 6.63-6.182 10.995 11.79c-1.315 3.547-3.497 5.582-6.611 6.214h.01zM830.821 119.657a.74.74 0 0 0-.154-.736l-11.325-12.103a9.45 9.45 0 0 0 4.725-.055 4.84 4.84 0 0 0 3.8-3.099 3.47 3.47 0 0 0-.781-3.41 4.84 4.84 0 0 0-4.765-1.076 11.83 11.83 0 0 0-2.694.906 11.85 11.85 0 0 0 1.093-2.623 4.84 4.84 0 0 0-.742-4.83 3.47 3.47 0 0 0-3.347-1.017 4.84 4.84 0 0 0-3.357 3.576 9.45 9.45 0 0 0-.384 4.709l-10.986-11.78a.74.74 0 0 0-.662-.224c-4.912.83-7.706 3.463-8.278 7.806a.74.74 0 0 0 .19.607l8.159 8.75-10.199 2.356a.74.74 0 0 0-.315 1.28l2.585 2.19-1.359 3.105a.74.74 0 0 0 .104.754.74.74 0 0 0 .683.224l13.2-2.65-3.565 12.983a.74.74 0 0 0 .176.697.74.74 0 0 0 .745.156l3.191-1.14 2.006 2.732a.74.74 0 0 0 1.299-.225l3.138-9.916 8.883 9.525a.74.74 0 0 0 .653.223c3.976-.681 6.757-3.256 8.283-7.695zm-24.613-11.506l6.63-6.183 4.427 4.748-6.63 6.182-4.427-4.747zm16.414-7.582a3.43 3.43 0 0 1 3.36.648 2 2 0 0 1 .45 2.017 3.43 3.43 0 0 1-2.725 2.086c-3.952.862-5.522-.593-5.964-1.129.174-.674.884-2.68 4.91-3.62l-.03-.002zm-7.932-4.95a3.43 3.43 0 0 1 2.271-2.572 2 2 0 0 1 1.981.59 3.43 3.43 0 0 1 .412 3.396c-1.22 3.96-3.28 4.508-3.933 4.585-.485-.427-1.897-2.107-.712-5.968l-.019-.03zm2.042 7.136a4.55 4.55 0 0 0-.35.878l-.56-.6a4.55 4.55 0 0 0 .941-.307l-.03.029zM801.11 89.41l10.715 11.491-6.63 6.183-10.714-11.531c.588-3.372 2.77-5.377 6.659-6.142h-.03zm-7.188 23.864l1.012-2.316a.73.73 0 0 0-.2-.857l-1.885-1.607 9.603-2.216 4.041 4.333-.005.14-12.566 2.523zm15.014 12.482l-1.471-1.993a.73.73 0 0 0-.842-.26l-2.38.848 3.431-12.328.14.005 4.042 4.334-2.92 9.394zm13.727.039l-11.024-11.822 6.63-6.183 10.995 11.791c-1.305 3.547-3.467 5.583-6.571 6.215l-.03-.001z"/>
            </g>
        </g>
        <g>
            <path d="M648.986 93.125l-4.78-6.391a.683.683 0 1 0-1.099.812l4.78 6.39a.683.683 0 0 0 1.1-.811zM650.853 90.098a.68.68 0 0 0 .145-.996l-4.78-6.39a.683.683 0 0 0-1.099.812l4.78 6.39a.68.68 0 0 0 .954.184z"/>
            <path d="M649.586 100.3l14.241-20.696 11.126-8.286 1.185 1.602a.66.66 0 1 0 1.028-.795l-1.184-1.602-8.727-11.722-1.184-1.602a.66.66 0 1 0-1.029.795l1.185 1.602-11.166 8.275-23.913 7.7a2.66 2.66 0 0 0-1.314 4.117l15.397 20.68a2.66 2.66 0 0 0 4.355-.068zm24.574-30.05l-11.126 8.276-.174.134-.127.186-2.161 3.156-8.698-11.68 3.643-1.174.212-.063.175-.134 11.126-8.276 7.13 9.574zm-26.739 29.864a1.31 1.31 0 0 1-1.091-.538l-15.398-20.68a1.33 1.33 0 0 1 .662-2.058l18.935-6.103 9.232 12.41-11.279 16.386a1.31 1.31 0 0 1-1.06.583z"/>
            <g>
                <path d="M939.56 103.272l-4.78-6.391a.683.683 0 0 0-1.1.812l4.78 6.39a.683.683 0 0 0 1.1-.811zM941.426 100.245a.68.68 0 0 0 .145-.996l-4.78-6.39a.683.683 0 0 0-1.1.812l4.78 6.39a.68.68 0 0 0 .955.184z"/>
                <path d="M940.15 110.447l14.24-20.696 11.126-8.277 1.185 1.603a.66.66 0 1 0 1.028-.795l-1.185-1.602-8.726-11.722-1.185-1.602a.66.66 0 0 0-1.028.794l1.185 1.603-11.126 8.276-23.913 7.7a2.66 2.66 0 0 0-1.295 4.108l15.398 20.68a2.66 2.66 0 0 0 4.295-.07zm24.573-30.051l-11.126 8.277-.174.134-.127.185-2.172 3.157-8.697-11.681 3.643-1.174.212-.062.175-.134 11.126-8.277 7.14 9.575zm-26.739 29.865a1.31 1.31 0 0 1-1.092-.538l-15.408-20.67a1.33 1.33 0 0 1 .663-2.059l18.934-6.103 9.273 12.411-11.279 16.387a1.31 1.31 0 0 1-1.09.572z"/>
            </g>
            <g>
                <path d="M1230.122 113.418l-4.78-6.39a.683.683 0 0 0-1.099.812l4.78 6.39a.683.683 0 0 0 1.1-.812zM1231.989 110.392a.68.68 0 0 0 .145-.996l-4.78-6.39a.683.683 0 0 0-1.1.812l4.78 6.39a.68.68 0 0 0 .955.184z"/>
                <path d="M1230.722 120.594l14.241-20.696 11.126-8.277 1.184 1.603a.66.66 0 1 0 1.029-.795l-1.185-1.602-8.726-11.722-1.185-1.602a.66.66 0 0 0-1.028.794l1.184 1.603-11.125 8.276-23.914 7.7a2.66 2.66 0 0 0-1.314 4.117l15.398 20.68a2.66 2.66 0 0 0 4.315-.08zm24.574-30.051l-11.126 8.277-.175.134-.126.185-2.172 3.157L1233 90.615l3.643-1.174.212-.062.175-.134 11.126-8.277 7.14 9.575zm-26.719 29.866a1.31 1.31 0 0 1-1.092-.539l-15.397-20.68a1.33 1.33 0 0 1 .662-2.058l18.934-6.103 9.233 12.41-11.32 16.395a1.31 1.31 0 0 1-1.02.575z"/>
            </g>
            <g>
                <path d="M358.423 82.978l-4.78-6.39a.68.68 0 0 0-.995-.146.68.68 0 0 0-.145.996l4.78 6.39a.68.68 0 0 0 .996.146.68.68 0 0 0 .144-.996zM360.29 79.951a.68.68 0 0 0 .145-.995l-4.722-6.339a.68.68 0 0 0-.995-.145.68.68 0 0 0-.145.996l4.78 6.39a.68.68 0 0 0 .937.093z"/>
                <path d="M359.013 90.153l14.241-20.696 11.126-8.276 1.185 1.602a.66.66 0 0 0 1.184-.303.66.66 0 0 0-.126-.49l-1.185-1.603-8.726-11.722-1.185-1.602a.66.66 0 0 0-1.184.303.66.66 0 0 0 .126.49l1.185 1.603-11.126 8.277-23.913 7.7a2.66 2.66 0 0 0-1.315 4.116l15.398 20.68a2.66 2.66 0 0 0 4.315-.079zm24.574-30.05l-11.125 8.276-.175.134-.127.186-2.171 3.156-8.698-11.68L364.934 59l.263-.061.174-.134 11.126-8.287 7.09 9.583zM356.85 89.966a1.31 1.31 0 0 1-1.092-.538l-15.398-20.68a1.31 1.31 0 0 1-.198-1.198c.128-.41.45-.732.86-.86l18.935-6.103 9.232 12.41-11.278 16.386a1.31 1.31 0 0 1-1.061.583z"/>
                <g>
                    <path d="M648.986 93.125l-4.78-6.391a.683.683 0 1 0-1.099.812l4.78 6.39a.683.683 0 0 0 1.1-.811zM650.853 90.098a.68.68 0 0 0 .145-.996l-4.78-6.39a.683.683 0 0 0-1.099.812l4.78 6.39a.68.68 0 0 0 .954.184z"/>
                    <path d="M649.586 100.3l14.241-20.696 11.126-8.286 1.185 1.602a.66.66 0 1 0 1.028-.795l-1.184-1.602-8.727-11.722-1.184-1.602a.66.66 0 1 0-1.029.795l1.185 1.602-11.166 8.275-23.913 7.7a2.66 2.66 0 0 0-1.314 4.117l15.397 20.68a2.66 2.66 0 0 0 4.355-.068zm24.574-30.05l-11.126 8.276-.174.134-.127.186-2.161 3.156-8.698-11.68 3.643-1.174.212-.063.175-.134 11.126-8.276 7.13 9.574zm-26.739 29.864a1.31 1.31 0 0 1-1.091-.538l-15.398-20.68a1.33 1.33 0 0 1 .662-2.058l18.935-6.103 9.232 12.41-11.279 16.386a1.31 1.31 0 0 1-1.06.583z"/>
                </g>
                <g>
                    <path d="M939.56 103.272l-4.78-6.391a.683.683 0 0 0-1.1.812l4.78 6.39a.683.683 0 0 0 1.1-.811zM941.426 100.245a.68.68 0 0 0 .145-.996l-4.78-6.39a.683.683 0 0 0-1.1.812l4.78 6.39a.68.68 0 0 0 .955.184z"/>
                    <path d="M940.15 110.447l14.24-20.696 11.126-8.277 1.185 1.603a.66.66 0 1 0 1.028-.795l-1.185-1.602-8.726-11.722-1.185-1.602a.66.66 0 0 0-1.028.794l1.185 1.603-11.126 8.276-23.913 7.7a2.66 2.66 0 0 0-1.295 4.108l15.398 20.68a2.66 2.66 0 0 0 4.295-.07zm24.573-30.051l-11.126 8.277-.174.134-.127.185-2.172 3.157-8.697-11.681 3.643-1.174.212-.062.175-.134 11.126-8.277 7.14 9.575zm-26.739 29.865a1.31 1.31 0 0 1-1.092-.538l-15.408-20.67a1.33 1.33 0 0 1 .663-2.059l18.934-6.103 9.273 12.411-11.279 16.387a1.31 1.31 0 0 1-1.09.572z"/>
                </g>
            </g>
            <g>
                <path d="M67.85 72.831l-4.78-6.39a.68.68 0 0 0-.995-.146.68.68 0 0 0-.145.996l4.78 6.39a.68.68 0 0 0 .996.146.68.68 0 0 0 .145-.996zM69.717 69.804a.68.68 0 0 0 .145-.995l-4.78-6.391a.68.68 0 0 0-.995-.145.68.68 0 0 0-.145.996l4.78 6.39a.68.68 0 0 0 .995.145z"/>
                <path d="M68.44 80.006L82.682 59.31l11.126-8.276 1.185 1.602a.66.66 0 0 0 1.184-.303.66.66 0 0 0-.126-.49l-1.185-1.603-8.726-11.722-1.185-1.602a.66.66 0 0 0-1.184.303.66.66 0 0 0 .126.49l1.185 1.603-11.126 8.277-23.913 7.7a2.66 2.66 0 0 0-1.315 4.116l15.398 20.68a2.66 2.66 0 0 0 4.316-.08zm24.574-30.05L81.89 58.231l-.175.134-.127.186-2.171 3.156-8.698-11.68 3.643-1.174.213-.063.174-.134 11.126-8.277 7.14 9.575zM66.286 79.82a1.31 1.31 0 0 1-1.092-.539l-15.398-20.68a1.31 1.31 0 0 1-.198-1.197c.128-.411.45-.733.86-.86l18.935-6.104 9.232 12.41-11.319 16.395a1.31 1.31 0 0 1-1.02.575z"/>
                <g>
                    <path d="M358.423 82.978l-4.78-6.39a.68.68 0 0 0-.995-.146.68.68 0 0 0-.145.996l4.78 6.39a.68.68 0 0 0 .996.146.68.68 0 0 0 .144-.996zM360.29 79.951a.68.68 0 0 0 .145-.995l-4.722-6.339a.68.68 0 0 0-.995-.145.68.68 0 0 0-.145.996l4.78 6.39a.68.68 0 0 0 .937.093z"/>
                    <path d="M359.013 90.153l14.241-20.696 11.126-8.276 1.185 1.602a.66.66 0 0 0 1.184-.303.66.66 0 0 0-.126-.49l-1.185-1.603-8.726-11.722-1.185-1.602a.66.66 0 0 0-1.184.303.66.66 0 0 0 .126.49l1.185 1.603-11.126 8.277-23.913 7.7a2.66 2.66 0 0 0-1.315 4.116l15.398 20.68a2.66 2.66 0 0 0 4.315-.079zm24.574-30.05l-11.125 8.276-.175.134-.127.186-2.171 3.156-8.698-11.68L364.934 59l.263-.061.174-.134 11.126-8.287 7.09 9.583zM356.85 89.966a1.31 1.31 0 0 1-1.092-.538l-15.398-20.68a1.31 1.31 0 0 1-.198-1.198c.128-.41.45-.732.86-.86l18.935-6.103 9.232 12.41-11.278 16.386a1.31 1.31 0 0 1-1.061.583z"/>
                </g>
                <g>
                    <path d="M648.986 93.125l-4.78-6.391a.683.683 0 1 0-1.099.812l4.78 6.39a.683.683 0 0 0 1.1-.811zM650.853 90.098a.68.68 0 0 0 .145-.996l-4.78-6.39a.683.683 0 0 0-1.099.812l4.78 6.39a.68.68 0 0 0 .954.184z"/>
                    <path d="M649.586 100.3l14.241-20.696 11.126-8.286 1.185 1.602a.66.66 0 1 0 1.028-.795l-1.184-1.602-8.727-11.722-1.184-1.602a.66.66 0 1 0-1.029.795l1.185 1.602-11.166 8.275-23.913 7.7a2.66 2.66 0 0 0-1.314 4.117l15.397 20.68a2.66 2.66 0 0 0 4.355-.068zm24.574-30.05l-11.126 8.276-.174.134-.127.186-2.161 3.156-8.698-11.68 3.643-1.174.212-.063.175-.134 11.126-8.276 7.13 9.574zm-26.739 29.864a1.31 1.31 0 0 1-1.091-.538l-15.398-20.68a1.33 1.33 0 0 1 .662-2.058l18.935-6.103 9.232 12.41-11.279 16.386a1.31 1.31 0 0 1-1.06.583z"/>
                </g>
            </g>
        </g>
    </g>
</svg>
